(export (version "D")
  (design
    (source "/Users/jeff/kicad_dev/kicad/qa/eeschema/data/netlists/complex_hierarchy/complex_hierarchy.kicad_sch")
    (date "Friday 04 December 2020 at 19:37:09")
    (tool "Eeschema (5.99.0-7350-g7b347d793b-dirty)")
    (sheet (number "1") (name "/") (tstamps "/")
      (title_block
        (title "Complex hierarchy: demo")
        (company)
        (rev)
        (date "2017-01-15")
        (source "complex_hierarchy.kicad_sch")
        (comment (number "1") (value ""))
        (comment (number "2") (value ""))
        (comment (number "3") (value ""))
        (comment (number "4") (value ""))
        (comment (number "5") (value ""))
        (comment (number "6") (value ""))
        (comment (number "7") (value ""))
        (comment (number "8") (value ""))
        (comment (number "9") (value ""))))
    (sheet (number "2") (name "/ampli_ht_vertical/") (tstamps "/00000000-0000-0000-0000-00004b3a1333/")
      (title_block
        (title "Complex hierarchy: demo")
        (company)
        (rev "1")
        (date "2017-01-15")
        (source "ampli_ht.kicad_sch")
        (comment (number "1") (value ""))
        (comment (number "2") (value ""))
        (comment (number "3") (value ""))
        (comment (number "4") (value ""))
        (comment (number "5") (value ""))
        (comment (number "6") (value ""))
        (comment (number "7") (value ""))
        (comment (number "8") (value ""))
        (comment (number "9") (value ""))))
    (sheet (number "3") (name "/ampli_ht_horizontal/") (tstamps "/00000000-0000-0000-0000-00004b3a13a4/")
      (title_block
        (title "Complex hierarchy: demo")
        (company)
        (rev "1")
        (date "2017-01-15")
        (source "ampli_ht.kicad_sch")
        (comment (number "1") (value ""))
        (comment (number "2") (value ""))
        (comment (number "3") (value ""))
        (comment (number "4") (value ""))
        (comment (number "5") (value ""))
        (comment (number "6") (value ""))
        (comment (number "7") (value ""))
        (comment (number "8") (value ""))
        (comment (number "9") (value "")))))
  (components
    (comp (ref "C1")
      (value "47uF")
      (footprint "Capacitor_THT:CP_Axial_L10.0mm_D4.5mm_P15.00mm_Horizontal")
      (libsource (lib "complex_hierarchy_schlib") (part "CP") (description ""))
      (property (name "") (value ""))
      (property (name "") (value "complex_hierarchy.kicad_sch"))
      (sheetpath (names "/") (tstamps "/"))
      (tstamp "00000000-0000-0000-0000-00004b03cec2"))
    (comp (ref "C2")
      (value "47uF/20V")
      (footprint "Capacitor_THT:CP_Axial_L10.0mm_D4.5mm_P15.00mm_Horizontal")
      (libsource (lib "complex_hierarchy_schlib") (part "CP") (description ""))
      (property (name "") (value ""))
      (property (name "") (value "complex_hierarchy.kicad_sch"))
      (sheetpath (names "/") (tstamps "/"))
      (tstamp "00000000-0000-0000-0000-00004ae173cf"))
    (comp (ref "C9")
      (value "47uF/63V")
      (footprint "Capacitor_THT:CP_Axial_L11.0mm_D6.0mm_P18.00mm_Horizontal")
      (libsource (lib "complex_hierarchy_schlib") (part "CP") (description ""))
      (property (name "") (value ""))
      (property (name "") (value "complex_hierarchy.kicad_sch"))
      (sheetpath (names "/") (tstamps "/"))
      (tstamp "00000000-0000-0000-0000-00004b3a1558"))
    (comp (ref "C10")
      (value "10uF")
      (footprint "Capacitor_THT:CP_Axial_L10.0mm_D4.5mm_P15.00mm_Horizontal")
      (libsource (lib "complex_hierarchy_schlib") (part "CP") (description ""))
      (property (name "") (value ""))
      (property (name "") (value "complex_hierarchy.kicad_sch"))
      (sheetpath (names "/") (tstamps "/"))
      (tstamp "00000000-0000-0000-0000-00004b4b15e7"))
    (comp (ref "C11")
      (value "10uF")
      (footprint "Capacitor_THT:CP_Axial_L10.0mm_D4.5mm_P15.00mm_Horizontal")
      (libsource (lib "complex_hierarchy_schlib") (part "CP") (description ""))
      (property (name "") (value ""))
      (property (name "") (value "complex_hierarchy.kicad_sch"))
      (sheetpath (names "/") (tstamps "/"))
      (tstamp "00000000-0000-0000-0000-00004b4b15d9"))
    (comp (ref "D1")
      (value "1N4007")
      (footprint "Diode_THT:D_DO-41_SOD81_P12.70mm_Horizontal")
      (libsource (lib "complex_hierarchy_schlib") (part "D_Small") (description ""))
      (property (name "") (value ""))
      (property (name "") (value "complex_hierarchy.kicad_sch"))
      (sheetpath (names "/") (tstamps "/"))
      (tstamp "00000000-0000-0000-0000-00004ae172f4"))
    (comp (ref "P1")
      (value "CONN_2")
      (footprint "TerminalBlock_Altech:Altech_AK300_1x02_P5.00mm_45-Degree")
      (libsource (lib "complex_hierarchy_schlib") (part "CONN_2") (description ""))
      (property (name "") (value ""))
      (property (name "") (value "complex_hierarchy.kicad_sch"))
      (sheetpath (names "/") (tstamps "/"))
      (tstamp "00000000-0000-0000-0000-00004b3a12f4"))
    (comp (ref "P2")
      (value "CONN_2")
      (footprint "TerminalBlock_Altech:Altech_AK300_1x02_P5.00mm_45-Degree")
      (libsource (lib "complex_hierarchy_schlib") (part "CONN_2") (description ""))
      (property (name "") (value ""))
      (property (name "") (value "complex_hierarchy.kicad_sch"))
      (sheetpath (names "/") (tstamps "/"))
      (tstamp "00000000-0000-0000-0000-00004ad71b06"))
    (comp (ref "U1")
      (value "ICL7660")
      (footprint "Package_DIP:DIP-8_W7.62mm_LongPads")
      (libsource (lib "complex_hierarchy_schlib") (part "ICL7660") (description ""))
      (property (name "") (value ""))
      (property (name "") (value "complex_hierarchy.kicad_sch"))
      (sheetpath (names "/") (tstamps "/"))
      (tstamp "00000000-0000-0000-0000-00004b4b1230"))
    (comp (ref "U2")
      (value "78L05")
      (footprint "Package_TO_SOT_THT:TO-92_HandSolder")
      (libsource (lib "complex_hierarchy_schlib") (part "7805") (description ""))
      (property (name "") (value ""))
      (property (name "") (value "complex_hierarchy.kicad_sch"))
      (sheetpath (names "/") (tstamps "/"))
      (tstamp "00000000-0000-0000-0000-00004b4b1532"))
    (comp (ref "C3")
      (value "15nF")
      (footprint "Capacitor_THT:C_Disc_D5.0mm_W2.5mm_P5.00mm")
      (libsource (lib "complex_hierarchy_schlib") (part "C") (description ""))
      (property (name "Sheet name") (value "ampli_ht_vertical"))
      (property (name "Sheet file") (value "ampli_ht.kicad_sch"))
      (sheetpath (names "/ampli_ht_vertical/") (tstamps "/00000000-0000-0000-0000-00004b3a1333/"))
      (tstamp "00000000-0000-0000-0000-00004b3a1358"))
    (comp (ref "C4")
      (value "4.7nF")
      (footprint "Capacitor_THT:C_Disc_D5.0mm_W2.5mm_P5.00mm")
      (libsource (lib "complex_hierarchy_schlib") (part "C") (description ""))
      (property (name "Sheet name") (value "ampli_ht_vertical"))
      (property (name "Sheet file") (value "ampli_ht.kicad_sch"))
      (sheetpath (names "/ampli_ht_vertical/") (tstamps "/00000000-0000-0000-0000-00004b3a1333/"))
      (tstamp "00000000-0000-0000-0000-00004b3a1366"))
    (comp (ref "C5")
      (value "820pF")
      (footprint "Capacitor_THT:C_Disc_D5.0mm_W2.5mm_P5.00mm")
      (libsource (lib "complex_hierarchy_schlib") (part "C") (description ""))
      (property (name "Sheet name") (value "ampli_ht_vertical"))
      (property (name "Sheet file") (value "ampli_ht.kicad_sch"))
      (sheetpath (names "/ampli_ht_vertical/") (tstamps "/00000000-0000-0000-0000-00004b3a1333/"))
      (tstamp "00000000-0000-0000-0000-00004b3a1365"))
    (comp (ref "C12")
      (value "150nF")
      (footprint "Capacitor_THT:C_Disc_D5.0mm_W2.5mm_P5.00mm")
      (libsource (lib "complex_hierarchy_schlib") (part "C") (description ""))
      (property (name "Sheet name") (value "ampli_ht_vertical"))
      (property (name "Sheet file") (value "ampli_ht.kicad_sch"))
      (sheetpath (names "/ampli_ht_vertical/") (tstamps "/00000000-0000-0000-0000-00004b3a1333/"))
      (tstamp "00000000-0000-0000-0000-00004b4f3641"))
    (comp (ref "D2")
      (value "1N4148")
      (footprint "Diode_THT:D_DO-35_SOD27_P7.62mm_Horizontal")
      (libsource (lib "complex_hierarchy_schlib") (part "D_Small") (description ""))
      (property (name "Sheet name") (value "ampli_ht_vertical"))
      (property (name "Sheet file") (value "ampli_ht.kicad_sch"))
      (sheetpath (names "/ampli_ht_vertical/") (tstamps "/00000000-0000-0000-0000-00004b3a1333/"))
      (tstamp "00000000-0000-0000-0000-00004b3a1375"))
    (comp (ref "D3")
      (value "1N4148")
      (footprint "Diode_THT:D_DO-35_SOD27_P7.62mm_Horizontal")
      (libsource (lib "complex_hierarchy_schlib") (part "D_Small") (description ""))
      (property (name "Sheet name") (value "ampli_ht_vertical"))
      (property (name "Sheet file") (value "ampli_ht.kicad_sch"))
      (sheetpath (names "/ampli_ht_vertical/") (tstamps "/00000000-0000-0000-0000-00004b3a1333/"))
      (tstamp "00000000-0000-0000-0000-00004b3a1377"))
    (comp (ref "D4")
      (value "1N4148")
      (footprint "Diode_THT:D_DO-35_SOD27_P7.62mm_Horizontal")
      (libsource (lib "complex_hierarchy_schlib") (part "D_Small") (description ""))
      (property (name "Sheet name") (value "ampli_ht_vertical"))
      (property (name "Sheet file") (value "ampli_ht.kicad_sch"))
      (sheetpath (names "/ampli_ht_vertical/") (tstamps "/00000000-0000-0000-0000-00004b3a1333/"))
      (tstamp "00000000-0000-0000-0000-00004b3a137b"))
    (comp (ref "D8")
      (value "1N4148")
      (footprint "Diode_THT:D_DO-35_SOD27_P7.62mm_Horizontal")
      (libsource (lib "complex_hierarchy_schlib") (part "D_Small") (description ""))
      (property (name "Sheet name") (value "ampli_ht_vertical"))
      (property (name "Sheet file") (value "ampli_ht.kicad_sch"))
      (sheetpath (names "/ampli_ht_vertical/") (tstamps "/00000000-0000-0000-0000-00004b3a1333/"))
      (tstamp "00000000-0000-0000-0000-00004b616afa"))
    (comp (ref "P3")
      (value "CONN_2")
      (footprint "TerminalBlock_Altech:Altech_AK300_1x02_P5.00mm_45-Degree")
      (libsource (lib "complex_hierarchy_schlib") (part "CONN_2") (description ""))
      (property (name "Sheet name") (value "ampli_ht_vertical"))
      (property (name "Sheet file") (value "ampli_ht.kicad_sch"))
      (sheetpath (names "/ampli_ht_vertical/") (tstamps "/00000000-0000-0000-0000-00004b3a1333/"))
      (tstamp "00000000-0000-0000-0000-00004b3a136c"))
    (comp (ref "P4")
      (value "CONN_2")
      (footprint "TerminalBlock_Altech:Altech_AK300_1x02_P5.00mm_45-Degree")
      (libsource (lib "complex_hierarchy_schlib") (part "CONN_2") (description ""))
      (property (name "Sheet name") (value "ampli_ht_vertical"))
      (property (name "Sheet file") (value "ampli_ht.kicad_sch"))
      (sheetpath (names "/ampli_ht_vertical/") (tstamps "/00000000-0000-0000-0000-00004b3a1333/"))
      (tstamp "00000000-0000-0000-0000-00004b3a1367"))
    (comp (ref "Q1")
      (value "MPSA92")
      (footprint "Package_TO_SOT_THT:TO-92_HandSolder")
      (libsource (lib "complex_hierarchy_schlib") (part "MPSA92") (description ""))
      (property (name "Sheet name") (value "ampli_ht_vertical"))
      (property (name "Sheet file") (value "ampli_ht.kicad_sch"))
      (sheetpath (names "/ampli_ht_vertical/") (tstamps "/00000000-0000-0000-0000-00004b3a1333/"))
      (tstamp "00000000-0000-0000-0000-00004b3a1360"))
    (comp (ref "Q2")
      (value "MPSA42")
      (footprint "Package_TO_SOT_THT:TO-92_HandSolder")
      (libsource (lib "complex_hierarchy_schlib") (part "MPSA42") (description ""))
      (property (name "Sheet name") (value "ampli_ht_vertical"))
      (property (name "Sheet file") (value "ampli_ht.kicad_sch"))
      (sheetpath (names "/ampli_ht_vertical/") (tstamps "/00000000-0000-0000-0000-00004b3a1333/"))
      (tstamp "00000000-0000-0000-0000-00004b3a137d"))
    (comp (ref "Q3")
      (value "MPSA92")
      (footprint "Package_TO_SOT_THT:TO-92_HandSolder")
      (libsource (lib "complex_hierarchy_schlib") (part "MPSA92") (description ""))
      (property (name "Sheet name") (value "ampli_ht_vertical"))
      (property (name "Sheet file") (value "ampli_ht.kicad_sch"))
      (sheetpath (names "/ampli_ht_vertical/") (tstamps "/00000000-0000-0000-0000-00004b3a1333/"))
      (tstamp "00000000-0000-0000-0000-00004b3a137c"))
    (comp (ref "Q4")
      (value "MPSA42")
      (footprint "Package_TO_SOT_THT:TO-92_HandSolder")
      (libsource (lib "complex_hierarchy_schlib") (part "MPSA42") (description ""))
      (property (name "Sheet name") (value "ampli_ht_vertical"))
      (property (name "Sheet file") (value "ampli_ht.kicad_sch"))
      (sheetpath (names "/ampli_ht_vertical/") (tstamps "/00000000-0000-0000-0000-00004b3a1333/"))
      (tstamp "00000000-0000-0000-0000-00004b3a1379"))
    (comp (ref "R3")
      (value "470")
      (footprint "Resistor_THT:R_Axial_DIN0204_L3.6mm_D1.6mm_P7.62mm_Horizontal")
      (libsource (lib "complex_hierarchy_schlib") (part "R") (description ""))
      (property (name "Sheet name") (value "ampli_ht_vertical"))
      (property (name "Sheet file") (value "ampli_ht.kicad_sch"))
      (sheetpath (names "/ampli_ht_vertical/") (tstamps "/00000000-0000-0000-0000-00004b3a1333/"))
      (tstamp "00000000-0000-0000-0000-00004b3a1376"))
    (comp (ref "R4")
      (value "220K")
      (footprint "Resistor_THT:R_Axial_DIN0204_L3.6mm_D1.6mm_P7.62mm_Horizontal")
      (libsource (lib "complex_hierarchy_schlib") (part "R") (description ""))
      (property (name "Sheet name") (value "ampli_ht_vertical"))
      (property (name "Sheet file") (value "ampli_ht.kicad_sch"))
      (sheetpath (names "/ampli_ht_vertical/") (tstamps "/00000000-0000-0000-0000-00004b3a1333/"))
      (tstamp "00000000-0000-0000-0000-00004b3a1374"))
    (comp (ref "R5")
      (value "47")
      (footprint "Resistor_THT:R_Axial_DIN0204_L3.6mm_D1.6mm_P7.62mm_Horizontal")
      (libsource (lib "complex_hierarchy_schlib") (part "R") (description ""))
      (property (name "Sheet name") (value "ampli_ht_vertical"))
      (property (name "Sheet file") (value "ampli_ht.kicad_sch"))
      (sheetpath (names "/ampli_ht_vertical/") (tstamps "/00000000-0000-0000-0000-00004b3a1333/"))
      (tstamp "00000000-0000-0000-0000-00004b3a1364"))
    (comp (ref "R6")
      (value "22K")
      (footprint "Resistor_THT:R_Axial_DIN0204_L3.6mm_D1.6mm_P7.62mm_Horizontal")
      (libsource (lib "complex_hierarchy_schlib") (part "R") (description ""))
      (property (name "Sheet name") (value "ampli_ht_vertical"))
      (property (name "Sheet file") (value "ampli_ht.kicad_sch"))
      (sheetpath (names "/ampli_ht_vertical/") (tstamps "/00000000-0000-0000-0000-00004b3a1333/"))
      (tstamp "00000000-0000-0000-0000-00004b3a136b"))
    (comp (ref "R7")
      (value "22K")
      (footprint "Resistor_THT:R_Axial_DIN0204_L3.6mm_D1.6mm_P7.62mm_Horizontal")
      (libsource (lib "complex_hierarchy_schlib") (part "R") (description ""))
      (property (name "Sheet name") (value "ampli_ht_vertical"))
      (property (name "Sheet file") (value "ampli_ht.kicad_sch"))
      (sheetpath (names "/ampli_ht_vertical/") (tstamps "/00000000-0000-0000-0000-00004b3a1333/"))
      (tstamp "00000000-0000-0000-0000-00004b3a1359"))
    (comp (ref "R8")
      (value "1K")
      (footprint "Resistor_THT:R_Axial_DIN0204_L3.6mm_D1.6mm_P7.62mm_Horizontal")
      (libsource (lib "complex_hierarchy_schlib") (part "R") (description ""))
      (property (name "Sheet name") (value "ampli_ht_vertical"))
      (property (name "Sheet file") (value "ampli_ht.kicad_sch"))
      (sheetpath (names "/ampli_ht_vertical/") (tstamps "/00000000-0000-0000-0000-00004b3a1333/"))
      (tstamp "00000000-0000-0000-0000-00004b3a1371"))
    (comp (ref "R9")
      (value "1K")
      (footprint "Resistor_THT:R_Axial_DIN0204_L3.6mm_D1.6mm_P7.62mm_Horizontal")
      (libsource (lib "complex_hierarchy_schlib") (part "R") (description ""))
      (property (name "Sheet name") (value "ampli_ht_vertical"))
      (property (name "Sheet file") (value "ampli_ht.kicad_sch"))
      (sheetpath (names "/ampli_ht_vertical/") (tstamps "/00000000-0000-0000-0000-00004b3a1333/"))
      (tstamp "00000000-0000-0000-0000-00004b3a136d"))
    (comp (ref "R10")
      (value "5,6K")
      (footprint "Resistor_THT:R_Axial_DIN0204_L3.6mm_D1.6mm_P7.62mm_Horizontal")
      (libsource (lib "complex_hierarchy_schlib") (part "R") (description ""))
      (property (name "Sheet name") (value "ampli_ht_vertical"))
      (property (name "Sheet file") (value "ampli_ht.kicad_sch"))
      (sheetpath (names "/ampli_ht_vertical/") (tstamps "/00000000-0000-0000-0000-00004b3a1333/"))
      (tstamp "00000000-0000-0000-0000-00004b61688c"))
    (comp (ref "R11")
      (value "4,7K")
      (footprint "Resistor_THT:R_Axial_DIN0204_L3.6mm_D1.6mm_P7.62mm_Horizontal")
      (libsource (lib "complex_hierarchy_schlib") (part "R") (description ""))
      (property (name "Sheet name") (value "ampli_ht_vertical"))
      (property (name "Sheet file") (value "ampli_ht.kicad_sch"))
      (sheetpath (names "/ampli_ht_vertical/") (tstamps "/00000000-0000-0000-0000-00004b3a1333/"))
      (tstamp "00000000-0000-0000-0000-00004b3a1362"))
    (comp (ref "R12")
      (value "220K")
      (footprint "Resistor_THT:R_Axial_DIN0204_L3.6mm_D1.6mm_P7.62mm_Horizontal")
      (libsource (lib "complex_hierarchy_schlib") (part "R") (description ""))
      (property (name "Sheet name") (value "ampli_ht_vertical"))
      (property (name "Sheet file") (value "ampli_ht.kicad_sch"))
      (sheetpath (names "/ampli_ht_vertical/") (tstamps "/00000000-0000-0000-0000-00004b3a1333/"))
      (tstamp "00000000-0000-0000-0000-00004b3a1370"))
    (comp (ref "R23")
      (value "1K")
      (footprint "Resistor_THT:R_Axial_DIN0204_L3.6mm_D1.6mm_P7.62mm_Horizontal")
      (libsource (lib "complex_hierarchy_schlib") (part "R") (description ""))
      (property (name "Sheet name") (value "ampli_ht_vertical"))
      (property (name "Sheet file") (value "ampli_ht.kicad_sch"))
      (sheetpath (names "/ampli_ht_vertical/") (tstamps "/00000000-0000-0000-0000-00004b3a1333/"))
      (tstamp "00000000-0000-0000-0000-00004b4f363e"))
    (comp (ref "R25")
      (value "47")
      (footprint "Resistor_THT:R_Axial_DIN0204_L3.6mm_D1.6mm_P7.62mm_Horizontal")
      (libsource (lib "complex_hierarchy_schlib") (part "R") (description ""))
      (property (name "Sheet name") (value "ampli_ht_vertical"))
      (property (name "Sheet file") (value "ampli_ht.kicad_sch"))
      (sheetpath (names "/ampli_ht_vertical/") (tstamps "/00000000-0000-0000-0000-00004b3a1333/"))
      (tstamp "00000000-0000-0000-0000-00004b616b96"))
    (comp (ref "R26")
      (value "220K")
      (footprint "Resistor_THT:R_Axial_DIN0204_L3.6mm_D1.6mm_P7.62mm_Horizontal")
      (libsource (lib "complex_hierarchy_schlib") (part "R") (description ""))
      (property (name "Sheet name") (value "ampli_ht_vertical"))
      (property (name "Sheet file") (value "ampli_ht.kicad_sch"))
      (sheetpath (names "/ampli_ht_vertical/") (tstamps "/00000000-0000-0000-0000-00004b3a1333/"))
      (tstamp "00000000-0000-0000-0000-00004b617b88"))
    (comp (ref "RV1")
      (value "4,7K")
      (footprint "Potentiometer_THT:Potentiometer_Bourns_3266W_Vertical")
      (libsource (lib "complex_hierarchy_schlib") (part "POT") (description ""))
      (property (name "Sheet name") (value "ampli_ht_vertical"))
      (property (name "Sheet file") (value "ampli_ht.kicad_sch"))
      (sheetpath (names "/ampli_ht_vertical/") (tstamps "/00000000-0000-0000-0000-00004b3a1333/"))
      (tstamp "00000000-0000-0000-0000-00004b3a1357"))
    (comp (ref "U3")
      (value "LM358N")
      (footprint "Package_DIP:DIP-8_W7.62mm_LongPads")
      (libsource (lib "complex_hierarchy_schlib") (part "LM358N") (description ""))
      (property (name "Sheet name") (value "ampli_ht_vertical"))
      (property (name "Sheet file") (value "ampli_ht.kicad_sch"))
      (sheetpath (names "/ampli_ht_vertical/") (tstamps "/00000000-0000-0000-0000-00004b3a1333/"))
      (tstamp "00000000-0000-0000-0000-00004b3a1368"))
    (comp (ref "C6")
      (value "15nF")
      (footprint "Capacitor_THT:C_Disc_D5.0mm_W2.5mm_P5.00mm")
      (libsource (lib "complex_hierarchy_schlib") (part "C") (description ""))
      (property (name "Sheet name") (value "ampli_ht_horizontal"))
      (property (name "Sheet file") (value "ampli_ht.kicad_sch"))
      (sheetpath (names "/ampli_ht_horizontal/") (tstamps "/00000000-0000-0000-0000-00004b3a13a4/"))
      (tstamp "00000000-0000-0000-0000-00004b3a1358"))
    (comp (ref "C7")
      (value "4.7nF")
      (footprint "Capacitor_THT:C_Disc_D5.0mm_W2.5mm_P5.00mm")
      (libsource (lib "complex_hierarchy_schlib") (part "C") (description ""))
      (property (name "Sheet name") (value "ampli_ht_horizontal"))
      (property (name "Sheet file") (value "ampli_ht.kicad_sch"))
      (sheetpath (names "/ampli_ht_horizontal/") (tstamps "/00000000-0000-0000-0000-00004b3a13a4/"))
      (tstamp "00000000-0000-0000-0000-00004b3a1366"))
    (comp (ref "C8")
      (value "820pF")
      (footprint "Capacitor_THT:C_Disc_D5.0mm_W2.5mm_P5.00mm")
      (libsource (lib "complex_hierarchy_schlib") (part "C") (description ""))
      (property (name "Sheet name") (value "ampli_ht_horizontal"))
      (property (name "Sheet file") (value "ampli_ht.kicad_sch"))
      (sheetpath (names "/ampli_ht_horizontal/") (tstamps "/00000000-0000-0000-0000-00004b3a13a4/"))
      (tstamp "00000000-0000-0000-0000-00004b3a1365"))
    (comp (ref "C14")
      (value "150nF")
      (footprint "Capacitor_THT:C_Disc_D5.0mm_W2.5mm_P5.00mm")
      (libsource (lib "complex_hierarchy_schlib") (part "C") (description ""))
      (property (name "Sheet name") (value "ampli_ht_horizontal"))
      (property (name "Sheet file") (value "ampli_ht.kicad_sch"))
      (sheetpath (names "/ampli_ht_horizontal/") (tstamps "/00000000-0000-0000-0000-00004b3a13a4/"))
      (tstamp "00000000-0000-0000-0000-00004b4f3641"))
    (comp (ref "D5")
      (value "1N4148")
      (footprint "Diode_THT:D_DO-35_SOD27_P7.62mm_Horizontal")
      (libsource (lib "complex_hierarchy_schlib") (part "D_Small") (description ""))
      (property (name "Sheet name") (value "ampli_ht_horizontal"))
      (property (name "Sheet file") (value "ampli_ht.kicad_sch"))
      (sheetpath (names "/ampli_ht_horizontal/") (tstamps "/00000000-0000-0000-0000-00004b3a13a4/"))
      (tstamp "00000000-0000-0000-0000-00004b3a1375"))
    (comp (ref "D6")
      (value "1N4148")
      (footprint "Diode_THT:D_DO-35_SOD27_P7.62mm_Horizontal")
      (libsource (lib "complex_hierarchy_schlib") (part "D_Small") (description ""))
      (property (name "Sheet name") (value "ampli_ht_horizontal"))
      (property (name "Sheet file") (value "ampli_ht.kicad_sch"))
      (sheetpath (names "/ampli_ht_horizontal/") (tstamps "/00000000-0000-0000-0000-00004b3a13a4/"))
      (tstamp "00000000-0000-0000-0000-00004b3a1377"))
    (comp (ref "D7")
      (value "1N4148")
      (footprint "Diode_THT:D_DO-35_SOD27_P7.62mm_Horizontal")
      (libsource (lib "complex_hierarchy_schlib") (part "D_Small") (description ""))
      (property (name "Sheet name") (value "ampli_ht_horizontal"))
      (property (name "Sheet file") (value "ampli_ht.kicad_sch"))
      (sheetpath (names "/ampli_ht_horizontal/") (tstamps "/00000000-0000-0000-0000-00004b3a13a4/"))
      (tstamp "00000000-0000-0000-0000-00004b3a137b"))
    (comp (ref "D9")
      (value "1N4148")
      (footprint "Diode_THT:D_DO-35_SOD27_P7.62mm_Horizontal")
      (libsource (lib "complex_hierarchy_schlib") (part "D_Small") (description ""))
      (property (name "Sheet name") (value "ampli_ht_horizontal"))
      (property (name "Sheet file") (value "ampli_ht.kicad_sch"))
      (sheetpath (names "/ampli_ht_horizontal/") (tstamps "/00000000-0000-0000-0000-00004b3a13a4/"))
      (tstamp "00000000-0000-0000-0000-00004b616afa"))
    (comp (ref "P5")
      (value "CONN_2")
      (footprint "TerminalBlock_Altech:Altech_AK300_1x02_P5.00mm_45-Degree")
      (libsource (lib "complex_hierarchy_schlib") (part "CONN_2") (description ""))
      (property (name "Sheet name") (value "ampli_ht_horizontal"))
      (property (name "Sheet file") (value "ampli_ht.kicad_sch"))
      (sheetpath (names "/ampli_ht_horizontal/") (tstamps "/00000000-0000-0000-0000-00004b3a13a4/"))
      (tstamp "00000000-0000-0000-0000-00004b3a136c"))
    (comp (ref "P6")
      (value "CONN_2")
      (footprint "TerminalBlock_Altech:Altech_AK300_1x02_P5.00mm_45-Degree")
      (libsource (lib "complex_hierarchy_schlib") (part "CONN_2") (description ""))
      (property (name "Sheet name") (value "ampli_ht_horizontal"))
      (property (name "Sheet file") (value "ampli_ht.kicad_sch"))
      (sheetpath (names "/ampli_ht_horizontal/") (tstamps "/00000000-0000-0000-0000-00004b3a13a4/"))
      (tstamp "00000000-0000-0000-0000-00004b3a1367"))
    (comp (ref "Q5")
      (value "MPSA92")
      (footprint "Package_TO_SOT_THT:TO-92_HandSolder")
      (libsource (lib "complex_hierarchy_schlib") (part "MPSA92") (description ""))
      (property (name "Sheet name") (value "ampli_ht_horizontal"))
      (property (name "Sheet file") (value "ampli_ht.kicad_sch"))
      (sheetpath (names "/ampli_ht_horizontal/") (tstamps "/00000000-0000-0000-0000-00004b3a13a4/"))
      (tstamp "00000000-0000-0000-0000-00004b3a1360"))
    (comp (ref "Q6")
      (value "MPSA42")
      (footprint "Package_TO_SOT_THT:TO-92_HandSolder")
      (libsource (lib "complex_hierarchy_schlib") (part "MPSA42") (description ""))
      (property (name "Sheet name") (value "ampli_ht_horizontal"))
      (property (name "Sheet file") (value "ampli_ht.kicad_sch"))
      (sheetpath (names "/ampli_ht_horizontal/") (tstamps "/00000000-0000-0000-0000-00004b3a13a4/"))
      (tstamp "00000000-0000-0000-0000-00004b3a137d"))
    (comp (ref "Q7")
      (value "MPSA92")
      (footprint "Package_TO_SOT_THT:TO-92_HandSolder")
      (libsource (lib "complex_hierarchy_schlib") (part "MPSA92") (description ""))
      (property (name "Sheet name") (value "ampli_ht_horizontal"))
      (property (name "Sheet file") (value "ampli_ht.kicad_sch"))
      (sheetpath (names "/ampli_ht_horizontal/") (tstamps "/00000000-0000-0000-0000-00004b3a13a4/"))
      (tstamp "00000000-0000-0000-0000-00004b3a137c"))
    (comp (ref "Q8")
      (value "MPSA42")
      (footprint "Package_TO_SOT_THT:TO-92_HandSolder")
      (libsource (lib "complex_hierarchy_schlib") (part "MPSA42") (description ""))
      (property (name "Sheet name") (value "ampli_ht_horizontal"))
      (property (name "Sheet file") (value "ampli_ht.kicad_sch"))
      (sheetpath (names "/ampli_ht_horizontal/") (tstamps "/00000000-0000-0000-0000-00004b3a13a4/"))
      (tstamp "00000000-0000-0000-0000-00004b3a1379"))
    (comp (ref "R13")
      (value "470")
      (footprint "Resistor_THT:R_Axial_DIN0204_L3.6mm_D1.6mm_P7.62mm_Horizontal")
      (libsource (lib "complex_hierarchy_schlib") (part "R") (description ""))
      (property (name "Sheet name") (value "ampli_ht_horizontal"))
      (property (name "Sheet file") (value "ampli_ht.kicad_sch"))
      (sheetpath (names "/ampli_ht_horizontal/") (tstamps "/00000000-0000-0000-0000-00004b3a13a4/"))
      (tstamp "00000000-0000-0000-0000-00004b3a1376"))
    (comp (ref "R14")
      (value "220K")
      (footprint "Resistor_THT:R_Axial_DIN0204_L3.6mm_D1.6mm_P7.62mm_Horizontal")
      (libsource (lib "complex_hierarchy_schlib") (part "R") (description ""))
      (property (name "Sheet name") (value "ampli_ht_horizontal"))
      (property (name "Sheet file") (value "ampli_ht.kicad_sch"))
      (sheetpath (names "/ampli_ht_horizontal/") (tstamps "/00000000-0000-0000-0000-00004b3a13a4/"))
      (tstamp "00000000-0000-0000-0000-00004b3a1374"))
    (comp (ref "R15")
      (value "47")
      (footprint "Resistor_THT:R_Axial_DIN0204_L3.6mm_D1.6mm_P7.62mm_Horizontal")
      (libsource (lib "complex_hierarchy_schlib") (part "R") (description ""))
      (property (name "Sheet name") (value "ampli_ht_horizontal"))
      (property (name "Sheet file") (value "ampli_ht.kicad_sch"))
      (sheetpath (names "/ampli_ht_horizontal/") (tstamps "/00000000-0000-0000-0000-00004b3a13a4/"))
      (tstamp "00000000-0000-0000-0000-00004b3a1364"))
    (comp (ref "R16")
      (value "22K")
      (footprint "Resistor_THT:R_Axial_DIN0204_L3.6mm_D1.6mm_P7.62mm_Horizontal")
      (libsource (lib "complex_hierarchy_schlib") (part "R") (description ""))
      (property (name "Sheet name") (value "ampli_ht_horizontal"))
      (property (name "Sheet file") (value "ampli_ht.kicad_sch"))
      (sheetpath (names "/ampli_ht_horizontal/") (tstamps "/00000000-0000-0000-0000-00004b3a13a4/"))
      (tstamp "00000000-0000-0000-0000-00004b3a136b"))
    (comp (ref "R17")
      (value "22K")
      (footprint "Resistor_THT:R_Axial_DIN0204_L3.6mm_D1.6mm_P7.62mm_Horizontal")
      (libsource (lib "complex_hierarchy_schlib") (part "R") (description ""))
      (property (name "Sheet name") (value "ampli_ht_horizontal"))
      (property (name "Sheet file") (value "ampli_ht.kicad_sch"))
      (sheetpath (names "/ampli_ht_horizontal/") (tstamps "/00000000-0000-0000-0000-00004b3a13a4/"))
      (tstamp "00000000-0000-0000-0000-00004b3a1359"))
    (comp (ref "R18")
      (value "1K")
      (footprint "Resistor_THT:R_Axial_DIN0204_L3.6mm_D1.6mm_P7.62mm_Horizontal")
      (libsource (lib "complex_hierarchy_schlib") (part "R") (description ""))
      (property (name "Sheet name") (value "ampli_ht_horizontal"))
      (property (name "Sheet file") (value "ampli_ht.kicad_sch"))
      (sheetpath (names "/ampli_ht_horizontal/") (tstamps "/00000000-0000-0000-0000-00004b3a13a4/"))
      (tstamp "00000000-0000-0000-0000-00004b3a1371"))
    (comp (ref "R19")
      (value "1K")
      (footprint "Resistor_THT:R_Axial_DIN0204_L3.6mm_D1.6mm_P7.62mm_Horizontal")
      (libsource (lib "complex_hierarchy_schlib") (part "R") (description ""))
      (property (name "Sheet name") (value "ampli_ht_horizontal"))
      (property (name "Sheet file") (value "ampli_ht.kicad_sch"))
      (sheetpath (names "/ampli_ht_horizontal/") (tstamps "/00000000-0000-0000-0000-00004b3a13a4/"))
      (tstamp "00000000-0000-0000-0000-00004b3a136d"))
    (comp (ref "R20")
      (value "5,6K")
      (footprint "Resistor_THT:R_Axial_DIN0204_L3.6mm_D1.6mm_P7.62mm_Horizontal")
      (libsource (lib "complex_hierarchy_schlib") (part "R") (description ""))
      (property (name "Sheet name") (value "ampli_ht_horizontal"))
      (property (name "Sheet file") (value "ampli_ht.kicad_sch"))
      (sheetpath (names "/ampli_ht_horizontal/") (tstamps "/00000000-0000-0000-0000-00004b3a13a4/"))
      (tstamp "00000000-0000-0000-0000-00004b61688c"))
    (comp (ref "R21")
      (value "4,7K")
      (footprint "Resistor_THT:R_Axial_DIN0204_L3.6mm_D1.6mm_P7.62mm_Horizontal")
      (libsource (lib "complex_hierarchy_schlib") (part "R") (description ""))
      (property (name "Sheet name") (value "ampli_ht_horizontal"))
      (property (name "Sheet file") (value "ampli_ht.kicad_sch"))
      (sheetpath (names "/ampli_ht_horizontal/") (tstamps "/00000000-0000-0000-0000-00004b3a13a4/"))
      (tstamp "00000000-0000-0000-0000-00004b3a1362"))
    (comp (ref "R22")
      (value "220K")
      (footprint "Resistor_THT:R_Axial_DIN0204_L3.6mm_D1.6mm_P7.62mm_Horizontal")
      (libsource (lib "complex_hierarchy_schlib") (part "R") (description ""))
      (property (name "Sheet name") (value "ampli_ht_horizontal"))
      (property (name "Sheet file") (value "ampli_ht.kicad_sch"))
      (sheetpath (names "/ampli_ht_horizontal/") (tstamps "/00000000-0000-0000-0000-00004b3a13a4/"))
      (tstamp "00000000-0000-0000-0000-00004b3a1370"))
    (comp (ref "R24")
      (value "1K")
      (footprint "Resistor_THT:R_Axial_DIN0204_L3.6mm_D1.6mm_P7.62mm_Horizontal")
      (libsource (lib "complex_hierarchy_schlib") (part "R") (description ""))
      (property (name "Sheet name") (value "ampli_ht_horizontal"))
      (property (name "Sheet file") (value "ampli_ht.kicad_sch"))
      (sheetpath (names "/ampli_ht_horizontal/") (tstamps "/00000000-0000-0000-0000-00004b3a13a4/"))
      (tstamp "00000000-0000-0000-0000-00004b4f363e"))
    (comp (ref "R27")
      (value "47")
      (footprint "Resistor_THT:R_Axial_DIN0204_L3.6mm_D1.6mm_P7.62mm_Horizontal")
      (libsource (lib "complex_hierarchy_schlib") (part "R") (description ""))
      (property (name "Sheet name") (value "ampli_ht_horizontal"))
      (property (name "Sheet file") (value "ampli_ht.kicad_sch"))
      (sheetpath (names "/ampli_ht_horizontal/") (tstamps "/00000000-0000-0000-0000-00004b3a13a4/"))
      (tstamp "00000000-0000-0000-0000-00004b616b96"))
    (comp (ref "R28")
      (value "220K")
      (footprint "Resistor_THT:R_Axial_DIN0204_L3.6mm_D1.6mm_P7.62mm_Horizontal")
      (libsource (lib "complex_hierarchy_schlib") (part "R") (description ""))
      (property (name "Sheet name") (value "ampli_ht_horizontal"))
      (property (name "Sheet file") (value "ampli_ht.kicad_sch"))
      (sheetpath (names "/ampli_ht_horizontal/") (tstamps "/00000000-0000-0000-0000-00004b3a13a4/"))
      (tstamp "00000000-0000-0000-0000-00004b617b88"))
    (comp (ref "RV2")
      (value "4,7K")
      (footprint "Potentiometer_THT:Potentiometer_Bourns_3266W_Vertical")
      (libsource (lib "complex_hierarchy_schlib") (part "POT") (description ""))
      (property (name "Sheet name") (value "ampli_ht_horizontal"))
      (property (name "Sheet file") (value "ampli_ht.kicad_sch"))
      (sheetpath (names "/ampli_ht_horizontal/") (tstamps "/00000000-0000-0000-0000-00004b3a13a4/"))
      (tstamp "00000000-0000-0000-0000-00004b3a1357"))
    (comp (ref "U4")
      (value "LM358N")
      (footprint "Package_DIP:DIP-8_W7.62mm_LongPads")
      (libsource (lib "complex_hierarchy_schlib") (part "LM358N") (description ""))
      (property (name "Sheet name") (value "ampli_ht_horizontal"))
      (property (name "Sheet file") (value "ampli_ht.kicad_sch"))
      (sheetpath (names "/ampli_ht_horizontal/") (tstamps "/00000000-0000-0000-0000-00004b3a13a4/"))
      (tstamp "00000000-0000-0000-0000-00004b3a1368")))
  (libparts
    (libpart (lib "complex_hierarchy_schlib") (part "7805")
      (fields
        (field (name "Reference") "U")
        (field (name "Value") "7805"))
      (pins
        (pin (num "1") (name "VO") (type "power_out"))
        (pin (num "2") (name "GND") (type "input"))
        (pin (num "3") (name "VI") (type "input"))))
    (libpart (lib "complex_hierarchy_schlib") (part "C")
      (footprints
        (fp "C?")
        (fp "C_????_*")
        (fp "C_????")
        (fp "SMD*_c")
        (fp "Capacitor*"))
      (fields
        (field (name "Reference") "C")
        (field (name "Value") "C"))
      (pins
        (pin (num "1") (name "~") (type "passive"))
        (pin (num "2") (name "~") (type "passive"))))
    (libpart (lib "complex_hierarchy_schlib") (part "CONN_2")
      (fields
        (field (name "Reference") "P")
        (field (name "Value") "CONN_2"))
      (pins
        (pin (num "1") (name "P1") (type "passive"))
        (pin (num "2") (name "PM") (type "passive"))))
    (libpart (lib "complex_hierarchy_schlib") (part "CP")
      (footprints
        (fp "CP*")
        (fp "Elko*")
        (fp "TantalC*")
        (fp "C*elec")
        (fp "c_elec*")
        (fp "SMD*_Pol"))
      (fields
        (field (name "Reference") "C")
        (field (name "Value") "CP"))
      (pins
        (pin (num "1") (name "~") (type "passive"))
        (pin (num "2") (name "~") (type "passive"))))
    (libpart (lib "complex_hierarchy_schlib") (part "D_Small")
      (footprints
        (fp "Diode_*")
        (fp "D-Pak_TO252AA")
        (fp "*SingleDiode")
        (fp "*SingleDiode*")
        (fp "*_Diode_*"))
      (fields
        (field (name "Reference") "D")
        (field (name "Value") "D_Small"))
      (pins
        (pin (num "1") (name "K") (type "passive"))
        (pin (num "2") (name "A") (type "passive"))))
    (libpart (lib "complex_hierarchy_schlib") (part "ICL7660")
      (fields
        (field (name "Reference") "U")
        (field (name "Value") "ICL7660"))
      (pins
        (pin (num "2") (name "CAP+") (type "input"))
        (pin (num "3") (name "GND") (type "power_in"))
        (pin (num "4") (name "CAP-") (type "input"))
        (pin (num "5") (name "VOUT") (type "power_out"))
        (pin (num "6") (name "LV") (type "input"))
        (pin (num "7") (name "OSC") (type "input"))
        (pin (num "8") (name "V+") (type "power_in"))))
    (libpart (lib "complex_hierarchy_schlib") (part "LM358N")
      (fields
        (field (name "Reference") "U")
        (field (name "Value") "LM358N"))
      (pins
        (pin (num "1") (name "~") (type "output"))
        (pin (num "2") (name "-") (type "input"))
        (pin (num "3") (name "+") (type "input"))
        (pin (num "4") (name "V-") (type "power_in"))
        (pin (num "5") (name "+") (type "input"))
        (pin (num "6") (name "-") (type "input"))
        (pin (num "7") (name "~") (type "output"))
        (pin (num "8") (name "V+") (type "power_in"))))
    (libpart (lib "complex_hierarchy_schlib") (part "MPSA42")
      (footprints
        (fp "TO92-CBE"))
      (fields
        (field (name "Reference") "Q")
        (field (name "Value") "MPSA42")
        (field (name "Footprint") "TO92-CBE"))
      (pins
        (pin (num "1") (name "E") (type "passive"))
        (pin (num "2") (name "B") (type "input"))
        (pin (num "3") (name "C") (type "passive"))))
    (libpart (lib "complex_hierarchy_schlib") (part "MPSA92")
      (footprints
        (fp "TO92-CBE"))
      (fields
        (field (name "Reference") "Q")
        (field (name "Value") "MPSA92")
        (field (name "Footprint") "TO92-CBE"))
      (pins
        (pin (num "1") (name "E") (type "passive"))
        (pin (num "2") (name "B") (type "input"))
        (pin (num "3") (name "C") (type "passive"))))
    (libpart (lib "complex_hierarchy_schlib") (part "POT")
      (fields
        (field (name "Reference") "RV")
        (field (name "Value") "POT"))
      (pins
        (pin (num "1") (name "1") (type "passive"))
        (pin (num "2") (name "2") (type "passive"))
        (pin (num "3") (name "3") (type "passive"))))
    (libpart (lib "complex_hierarchy_schlib") (part "R")
      (footprints
        (fp "R_*")
        (fp "Resistor_*"))
      (fields
        (field (name "Reference") "R")
        (field (name "Value") "R"))
      (pins
        (pin (num "1") (name "~") (type "passive"))
        (pin (num "2") (name "~") (type "passive")))))
  (libraries
    (library (logical "complex_hierarchy_schlib")
      (uri "/Users/jeff/kicad_dev/kicad/qa/eeschema/data/netlists/complex_hierarchy/complex_hierarchy_schlib.lib")))
  (nets
    (net (code "1") (name "+12C")
      (node (ref "C2") (pin "1"))
      (node (ref "D1") (pin "1") (pinfunction "K"))
      (node (ref "U2") (pin "3") (pinfunction "VI"))
      (node (ref "U3") (pin "8") (pinfunction "V+"))
      (node (ref "U4") (pin "8") (pinfunction "V+")))
    (net (code "2") (name "-VAA")
      (node (ref "C11") (pin "2"))
      (node (ref "U1") (pin "5") (pinfunction "VOUT"))
      (node (ref "U3") (pin "4") (pinfunction "V-"))
      (node (ref "U4") (pin "4") (pinfunction "V-")))
    (net (code "3") (name "/12Vext")
      (node (ref "D1") (pin "2") (pinfunction "A"))
      (node (ref "P2") (pin "1") (pinfunction "P1")))
    (net (code "4") (name "/ampli_ht_horizontal/PIEZO_IN")
      (node (ref "P6") (pin "1") (pinfunction "P1"))
      (node (ref "R24") (pin "2")))
    (net (code "5") (name "/ampli_ht_horizontal/PIEZO_OUT")
      (node (ref "P5") (pin "1") (pinfunction "P1"))
      (node (ref "R15") (pin "1"))
      (node (ref "R27") (pin "1")))
    (net (code "6") (name "/ampli_ht_horizontal/S_OUT+")
      (node (ref "R22") (pin "1"))
      (node (ref "R28") (pin "1"))
      (node (ref "RV2") (pin "3") (pinfunction "3")))
    (net (code "7") (name "/ampli_ht_horizontal/Vpil_0_3,3V")
      (node (ref "C6") (pin "1"))
      (node (ref "U4") (pin "3") (pinfunction "+"))
      (node (ref "U4") (pin "6") (pinfunction "-"))
      (node (ref "U4") (pin "7")))
    (net (code "8") (name "/ampli_ht_vertical/PIEZO_IN")
      (node (ref "P4") (pin "1") (pinfunction "P1"))
      (node (ref "R23") (pin "2")))
    (net (code "9") (name "/ampli_ht_vertical/PIEZO_OUT")
      (node (ref "P3") (pin "1") (pinfunction "P1"))
      (node (ref "R25") (pin "1"))
      (node (ref "R5") (pin "1")))
    (net (code "10") (name "/ampli_ht_vertical/S_OUT+")
      (node (ref "R12") (pin "1"))
      (node (ref "R26") (pin "1"))
      (node (ref "RV1") (pin "3") (pinfunction "3")))
    (net (code "11") (name "/ampli_ht_vertical/Vpil_0_3,3V")
      (node (ref "C3") (pin "1"))
      (node (ref "U3") (pin "3") (pinfunction "+"))
      (node (ref "U3") (pin "6") (pinfunction "-"))
      (node (ref "U3") (pin "7")))
    (net (code "12") (name "GND")
      (node (ref "C1") (pin "2"))
      (node (ref "C11") (pin "1"))
      (node (ref "C12") (pin "2"))
      (node (ref "C14") (pin "2"))
      (node (ref "C2") (pin "2"))
      (node (ref "C4") (pin "2"))
      (node (ref "C5") (pin "2"))
      (node (ref "C7") (pin "2"))
      (node (ref "C8") (pin "2"))
      (node (ref "C9") (pin "2"))
      (node (ref "P1") (pin "2") (pinfunction "PM"))
      (node (ref "P2") (pin "2") (pinfunction "PM"))
      (node (ref "P3") (pin "2") (pinfunction "PM"))
      (node (ref "P4") (pin "2") (pinfunction "PM"))
      (node (ref "P5") (pin "2") (pinfunction "PM"))
      (node (ref "P6") (pin "2") (pinfunction "PM"))
      (node (ref "Q3") (pin "3") (pinfunction "C"))
      (node (ref "Q7") (pin "3") (pinfunction "C"))
      (node (ref "R11") (pin "2"))
      (node (ref "R14") (pin "2"))
      (node (ref "R18") (pin "2"))
      (node (ref "R21") (pin "2"))
      (node (ref "R4") (pin "2"))
      (node (ref "R8") (pin "2"))
      (node (ref "U1") (pin "3") (pinfunction "GND"))
      (node (ref "U2") (pin "2") (pinfunction "GND")))
    (net (code "13") (name "HT")
      (node (ref "C9") (pin "1"))
      (node (ref "D2") (pin "2") (pinfunction "A"))
      (node (ref "D5") (pin "2") (pinfunction "A"))
      (node (ref "P1") (pin "1") (pinfunction "P1"))
      (node (ref "Q2") (pin "3") (pinfunction "C"))
      (node (ref "Q6") (pin "3") (pinfunction "C"))
      (node (ref "R13") (pin "1"))
      (node (ref "R3") (pin "1")))
    (net (code "14") (name "Net-(C3-Pad2)")
      (node (ref "C3") (pin "2"))
      (node (ref "R6") (pin "1"))
      (node (ref "R7") (pin "2")))
    (net (code "15") (name "Net-(C4-Pad1)")
      (node (ref "C4") (pin "1"))
      (node (ref "R7") (pin "1"))
      (node (ref "U3") (pin "5") (pinfunction "+")))
    (net (code "16") (name "Net-(C5-Pad1)")
      (node (ref "C5") (pin "1"))
      (node (ref "R10") (pin "2")))
    (net (code "17") (name "Net-(C6-Pad2)")
      (node (ref "C6") (pin "2"))
      (node (ref "R16") (pin "1"))
      (node (ref "R17") (pin "2")))
    (net (code "18") (name "Net-(C7-Pad1)")
      (node (ref "C7") (pin "1"))
      (node (ref "R17") (pin "1"))
      (node (ref "U4") (pin "5") (pinfunction "+")))
    (net (code "19") (name "Net-(C8-Pad1)")
      (node (ref "C8") (pin "1"))
      (node (ref "R20") (pin "2")))
    (net (code "20") (name "Net-(C10-Pad1)")
      (node (ref "C10") (pin "1"))
      (node (ref "U1") (pin "2") (pinfunction "CAP+")))
    (net (code "21") (name "Net-(C10-Pad2)")
      (node (ref "C10") (pin "2"))
      (node (ref "U1") (pin "4") (pinfunction "CAP-")))
    (net (code "22") (name "Net-(C12-Pad1)")
      (node (ref "C12") (pin "1"))
      (node (ref "R23") (pin "1"))
      (node (ref "R6") (pin "2")))
    (net (code "23") (name "Net-(C14-Pad1)")
      (node (ref "C14") (pin "1"))
      (node (ref "R16") (pin "2"))
      (node (ref "R24") (pin "1")))
    (net (code "24") (name "Net-(D2-Pad1)")
      (node (ref "D2") (pin "1") (pinfunction "K"))
      (node (ref "D3") (pin "2") (pinfunction "A")))
    (net (code "25") (name "Net-(D3-Pad1)")
      (node (ref "D3") (pin "1") (pinfunction "K"))
      (node (ref "Q1") (pin "2") (pinfunction "B"))
      (node (ref "R4") (pin "1")))
    (net (code "26") (name "Net-(D4-Pad1)")
      (node (ref "D4") (pin "1") (pinfunction "K"))
      (node (ref "Q3") (pin "2") (pinfunction "B"))
      (node (ref "Q4") (pin "3") (pinfunction "C"))
      (node (ref "R10") (pin "1")))
    (net (code "27") (name "Net-(D4-Pad2)")
      (node (ref "D4") (pin "2") (pinfunction "A"))
      (node (ref "D8") (pin "1") (pinfunction "K")))
    (net (code "28") (name "Net-(D5-Pad1)")
      (node (ref "D5") (pin "1") (pinfunction "K"))
      (node (ref "D6") (pin "2") (pinfunction "A")))
    (net (code "29") (name "Net-(D6-Pad1)")
      (node (ref "D6") (pin "1") (pinfunction "K"))
      (node (ref "Q5") (pin "2") (pinfunction "B"))
      (node (ref "R14") (pin "1")))
    (net (code "30") (name "Net-(D7-Pad1)")
      (node (ref "D7") (pin "1") (pinfunction "K"))
      (node (ref "Q7") (pin "2") (pinfunction "B"))
      (node (ref "Q8") (pin "3") (pinfunction "C"))
      (node (ref "R20") (pin "1")))
    (net (code "31") (name "Net-(D7-Pad2)")
      (node (ref "D7") (pin "2") (pinfunction "A"))
      (node (ref "D9") (pin "1") (pinfunction "K")))
    (net (code "32") (name "Net-(D8-Pad2)")
      (node (ref "D8") (pin "2") (pinfunction "A"))
      (node (ref "Q1") (pin "3") (pinfunction "C"))
      (node (ref "Q2") (pin "2") (pinfunction "B")))
    (net (code "33") (name "Net-(D9-Pad2)")
      (node (ref "D9") (pin "2") (pinfunction "A"))
      (node (ref "Q5") (pin "3") (pinfunction "C"))
      (node (ref "Q6") (pin "2") (pinfunction "B")))
    (net (code "34") (name "Net-(Q1-Pad1)")
      (node (ref "Q1") (pin "1") (pinfunction "E"))
      (node (ref "R3") (pin "2")))
    (net (code "35") (name "Net-(Q2-Pad1)")
      (node (ref "Q2") (pin "1") (pinfunction "E"))
      (node (ref "R26") (pin "2"))
      (node (ref "R5") (pin "2")))
    (net (code "36") (name "Net-(Q3-Pad1)")
      (node (ref "Q3") (pin "1") (pinfunction "E"))
      (node (ref "R12") (pin "2"))
      (node (ref "R25") (pin "2")))
    (net (code "37") (name "Net-(Q4-Pad1)")
      (node (ref "Q4") (pin "1") (pinfunction "E"))
      (node (ref "R9") (pin "1")))
    (net (code "38") (name "Net-(Q4-Pad2)")
      (node (ref "Q4") (pin "2") (pinfunction "B"))
      (node (ref "R8") (pin "1")))
    (net (code "39") (name "Net-(Q5-Pad1)")
      (node (ref "Q5") (pin "1") (pinfunction "E"))
      (node (ref "R13") (pin "2")))
    (net (code "40") (name "Net-(Q6-Pad1)")
      (node (ref "Q6") (pin "1") (pinfunction "E"))
      (node (ref "R15") (pin "2"))
      (node (ref "R28") (pin "2")))
    (net (code "41") (name "Net-(Q7-Pad1)")
      (node (ref "Q7") (pin "1") (pinfunction "E"))
      (node (ref "R22") (pin "2"))
      (node (ref "R27") (pin "2")))
    (net (code "42") (name "Net-(Q8-Pad1)")
      (node (ref "Q8") (pin "1") (pinfunction "E"))
      (node (ref "R19") (pin "1")))
    (net (code "43") (name "Net-(Q8-Pad2)")
      (node (ref "Q8") (pin "2") (pinfunction "B"))
      (node (ref "R18") (pin "1")))
    (net (code "44") (name "Net-(R9-Pad2)")
      (node (ref "R9") (pin "2"))
      (node (ref "U3") (pin "1")))
    (net (code "45") (name "Net-(R11-Pad1)")
      (node (ref "R11") (pin "1"))
      (node (ref "RV1") (pin "1") (pinfunction "1")))
    (net (code "46") (name "Net-(R19-Pad2)")
      (node (ref "R19") (pin "2"))
      (node (ref "U4") (pin "1")))
    (net (code "47") (name "Net-(R21-Pad1)")
      (node (ref "R21") (pin "1"))
      (node (ref "RV2") (pin "1") (pinfunction "1")))
    (net (code "48") (name "Net-(RV1-Pad2)")
      (node (ref "RV1") (pin "2") (pinfunction "2"))
      (node (ref "U3") (pin "2") (pinfunction "-")))
    (net (code "49") (name "Net-(RV2-Pad2)")
      (node (ref "RV2") (pin "2") (pinfunction "2"))
      (node (ref "U4") (pin "2") (pinfunction "-")))
    (net (code "50") (name "VCC")
      (node (ref "C1") (pin "1"))
      (node (ref "U1") (pin "8") (pinfunction "V+"))
      (node (ref "U2") (pin "1") (pinfunction "VO")))
    (net (code "51") (name "no_connect_51")
      (node (ref "U1") (pin "6") (pinfunction "LV")))
    (net (code "52") (name "no_connect_52")
      (node (ref "U1") (pin "7") (pinfunction "OSC")))))