<?xml version="1.0" encoding="UTF-8" standalone="no"?>
<svg
   xmlns:dc="http://purl.org/dc/elements/1.1/"
   xmlns:cc="http://creativecommons.org/ns#"
   xmlns:rdf="http://www.w3.org/1999/02/22-rdf-syntax-ns#"
   xmlns:svg="http://www.w3.org/2000/svg"
   xmlns="http://www.w3.org/2000/svg"
   xmlns:sodipodi="http://sodipodi.sourceforge.net/DTD/sodipodi-0.dtd"
   xmlns:inkscape="http://www.inkscape.org/namespaces/inkscape"
   id="Слой_1"
   data-name="Слой 1"
   viewBox="0 0 24 24"
   version="1.1"
   sodipodi:docname="delete.svg"
   inkscape:version="1.0.1 (1.0.1+r74)">
  <sodipodi:namedview
     pagecolor="#ffffff"
     bordercolor="#666666"
     borderopacity="1"
     objecttolerance="10"
     gridtolerance="10"
     guidetolerance="10"
     inkscape:pageopacity="0"
     inkscape:pageshadow="2"
     inkscape:window-width="2560"
     inkscape:window-height="1371"
     id="namedview18"
     showgrid="true"
     inkscape:zoom="19.771793"
     inkscape:cx="-11.237571"
     inkscape:cy="9.6806269"
     inkscape:window-x="0"
     inkscape:window-y="0"
     inkscape:window-maximized="1"
     inkscape:current-layer="Слой_1"
     inkscape:document-rotation="0">
    <inkscape:grid
       type="xygrid"
       id="grid843" />
  </sodipodi:namedview>
  <metadata
     id="metadata43">
    <rdf:RDF>
      <cc:Work
         rdf:about="">
        <cc:license
           rdf:resource="http://creativecommons.org/licenses/by-sa/4.0/" />
        <dc:format>image/svg+xml</dc:format>
        <dc:type
           rdf:resource="http://purl.org/dc/dcmitype/StillImage" />
        <dc:title>add_arc</dc:title>
      </cc:Work>
      <cc:License
         rdf:about="http://creativecommons.org/licenses/by-sa/4.0/">
        <cc:permits
           rdf:resource="http://creativecommons.org/ns#Reproduction" />
        <cc:permits
           rdf:resource="http://creativecommons.org/ns#Distribution" />
        <cc:requires
           rdf:resource="http://creativecommons.org/ns#Notice" />
        <cc:requires
           rdf:resource="http://creativecommons.org/ns#Attribution" />
        <cc:permits
           rdf:resource="http://creativecommons.org/ns#DerivativeWorks" />
        <cc:requires
           rdf:resource="http://creativecommons.org/ns#ShareAlike" />
      </cc:License>
    </rdf:RDF>
  </metadata>
  <defs
     id="defs5">
    <style
       id="style3">.cls-1{fill:#bf2641;}.cls-2{fill:none;stroke:#f5f5f5;stroke-linecap:round;stroke-linejoin:round;stroke-width:2px;}.cls-3{fill:#545454;}</style>
  </defs>
  <title
     id="title7">delete</title>
  <g
     id="g857"
     transform="translate(0.05,0.05)">
    <path
       class="cls-1"
       d="m 21.95,21.95 a 7,7 0 1 1 0,-9.8994 7,7 0 0 1 0,9.8994 z"
       id="path9" />
    <g
       id="g851">
      <line
         class="cls-2"
         x1="19.4704"
         y1="14.5209"
         x2="14.5207"
         y2="19.4706"
         id="line11" />
      <line
         class="cls-2"
         x1="19.4704"
         y1="19.4706"
         x2="14.5207"
         y2="14.5209"
         id="line13" />
    </g>
  </g>
  <path
     class="cls-3"
     d="m 4,1 11.044342,10.162501 -4.602179,0.291004 c 0.448152,1.022828 1.113273,2.529962 1.693021,3.846455 a 1.7016,1.7016 0 0 1 -0.876051,2.244678 v 0 A 1.7015,1.7015 0 0 1 9.017368,16.673017 C 8.4372342,15.356696 7.7712809,13.847532 7.3214393,12.821279 l -3.3335708,3.187364 z"
     id="path15"
     style="stroke:#ffffff;stroke-opacity:1" />
</svg>
