<?xml version="1.0" encoding="UTF-8" standalone="no"?>
<svg xmlns:dc="http://purl.org/dc/elements/1.1/"
   xmlns:cc="http://creativecommons.org/ns#"
   xmlns:rdf="http://www.w3.org/1999/02/22-rdf-syntax-ns#"
   xmlns:svg="http://www.w3.org/2000/svg"
   xmlns="http://www.w3.org/2000/svg"
   xmlns:sodipodi="http://sodipodi.sourceforge.net/DTD/sodipodi-0.dtd"
   xmlns:inkscape="http://www.inkscape.org/namespaces/inkscape" id="Слой_1" data-name="Слой 1" viewBox="0 0 24 24" version="1.1" sodipodi:docname="duplicate.svg" inkscape:version="1.0.1 (3bc2e813f5, 2020-09-07)">
   <sodipodi:namedview pagecolor="#ffffff" bordercolor="#666666" borderopacity="1" objecttolerance="10" gridtolerance="10" guidetolerance="10" inkscape:pageopacity="0" inkscape:pageshadow="2" inkscape:window-width="2207" inkscape:window-height="1483" id="namedview30" showgrid="true" inkscape:zoom="27.961538" inkscape:cx="9.6550514" inkscape:cy="12.887521" inkscape:window-x="0" inkscape:window-y="37" inkscape:window-maximized="0" inkscape:document-rotation="0" inkscape:current-layer="Слой_1">
      <inkscape:grid type="xygrid" id="grid_kicad" spacingx="0.5" spacingy="0.5" color="#9999ff" opacity="0.13" empspacing="2" />
   </sodipodi:namedview>
   <metadata id="metadata43">
      <rdf:RDF>
         <cc:Work rdf:about="">
            <cc:license rdf:resource="http://creativecommons.org/licenses/by-sa/4.0/" />
            <dc:format>image/svg+xml</dc:format>
            <dc:type rdf:resource="http://purl.org/dc/dcmitype/StillImage" />
            <dc:title>add_arc</dc:title>
         </cc:Work>
         <cc:License rdf:about="http://creativecommons.org/licenses/by-sa/4.0/">
            <cc:permits rdf:resource="http://creativecommons.org/ns#Reproduction" />
            <cc:permits rdf:resource="http://creativecommons.org/ns#Distribution" />
            <cc:requires rdf:resource="http://creativecommons.org/ns#Notice" />
            <cc:requires rdf:resource="http://creativecommons.org/ns#Attribution" />
            <cc:permits rdf:resource="http://creativecommons.org/ns#DerivativeWorks" />
            <cc:requires rdf:resource="http://creativecommons.org/ns#ShareAlike" />
         </cc:License>
      </rdf:RDF>
   </metadata>
   <defs id="defs116718">
      <style id="style116716">.cls-1{fill:#b9b9b9;}.cls-2{fill:#1a81c4;}.cls-3{fill:none;stroke:#bf2641;stroke-linecap:round;stroke-linejoin:round;stroke-width:2px;}</style>
   </defs>
   <title id="title116720">duplicate</title>
   <path class="cls-1" d="m 2.6662,-0.0019 h 10.6665 a 2.6667,2.6667 0 0 1 2.6667,2.6667 v 10.6665 a 2.6668,2.6668 0 0 1 -2.6668,2.6668 H 2.666 A 2.6666,2.6666 0 0 1 -6e-4,13.3315 V 2.6649 a 2.6668,2.6668 0 0 1 2.6668,-2.6668 z" id="path116722" />
   <path class="cls-2" d="M 10.6667,8.0022 H 21.3334 A 2.6667,2.6667 0 0 1 24,10.6689 v 10.6665 a 2.6668,2.6668 0 0 1 -2.6668,2.6668 H 10.6669 A 2.6668,2.6668 0 0 1 8,21.3354 V 10.6688 a 2.6666,2.6666 0 0 1 2.6666,-2.6666 z" id="path116724" />
   <g id="g2044" transform="matrix(1.3253403,0,0,0.99999998,-2.8350037,-0.60115351)" style="display:inline;stroke-width:0.868633">
      <path style="color:#000000;font-style:normal;font-variant:normal;font-weight:normal;font-stretch:normal;font-size:medium;line-height:normal;font-family:sans-serif;font-variant-ligatures:normal;font-variant-position:normal;font-variant-caps:normal;font-variant-numeric:normal;font-variant-alternates:normal;font-variant-east-asian:normal;font-feature-settings:normal;font-variation-settings:normal;text-indent:0;text-align:start;text-decoration:none;text-decoration-line:none;text-decoration-style:solid;text-decoration-color:#000000;letter-spacing:normal;word-spacing:normal;text-transform:none;writing-mode:lr-tb;direction:ltr;text-orientation:mixed;dominant-baseline:auto;baseline-shift:baseline;text-anchor:start;white-space:normal;shape-padding:0;shape-margin:0;inline-size:0;clip-rule:nonzero;display:inline;overflow:visible;visibility:visible;opacity:1;isolation:auto;mix-blend-mode:normal;color-interpolation:sRGB;color-interpolation-filters:linearRGB;solid-color:#000000;solid-opacity:1;vector-effect:none;fill:#bf2641;fill-opacity:1;fill-rule:nonzero;stroke:none;stroke-width:1.73727px;stroke-linecap:round;stroke-linejoin:round;stroke-miterlimit:4;stroke-dasharray:none;stroke-dashoffset:0;stroke-opacity:1;color-rendering:auto;image-rendering:auto;shape-rendering:auto;text-rendering:auto;enable-background:accumulate;stop-color:#000000;stop-opacity:1" d="m 4.0058594,13.4375 c -0.5522847,0 -0.7895589,0.578174 -1,1 -0.6590225,1.321 -0.8054951,3.169119 -0.6184761,4.38539 0.3256833,2.118067 1.5908746,2.631602 2.9404947,2.984886 C 7,22.245481 10.175781,21.04883 10.175781,21.04883 c 0.549555,-0.05484 1,-0.447715 1,-1 0,-0.552285 -0.447715,-1 -1,-1 0,0 -3.0894053,-0.122415 -4.3079676,-1.340978 C 4.780913,16.62095 5,15.5 5.0058594,14.4375 c 0.0026,-0.471397 -0.4477153,-1 -1,-1 z" id="path2020" sodipodi:nodetypes="sassssssss" />
      <path id="polyline1446" style="fill:none;stroke:#bf2641;stroke-width:1.73726;stroke-linecap:round;stroke-linejoin:round;stroke-miterlimit:4;stroke-dasharray:none;stroke-opacity:1" d="m 8.0337885,17.101154 2.4259995,2.999382 -2.4259995,3.000618" sodipodi:nodetypes="ccc" />
   </g>
</svg>
