<?xml version="1.0" encoding="UTF-8" standalone="no"?>
<svg
   xmlns:dc="http://purl.org/dc/elements/1.1/"
   xmlns:cc="http://creativecommons.org/ns#"
   xmlns:rdf="http://www.w3.org/1999/02/22-rdf-syntax-ns#"
   xmlns:svg="http://www.w3.org/2000/svg"
   xmlns="http://www.w3.org/2000/svg"
   xmlns:sodipodi="http://sodipodi.sourceforge.net/DTD/sodipodi-0.dtd"
   xmlns:inkscape="http://www.inkscape.org/namespaces/inkscape"
   id="Слой_1"
   data-name="Слой 1"
   viewBox="0 0 24 24"
   version="1.1"
   sodipodi:docname="enter_sheet.svg"
   inkscape:version="0.92.2 5c3e80d, 2017-08-06"
   inkscape:export-filename="/Users/jeff/kicad_dev/kicad/bitmaps_png/png_26/enter_sheet.png"
   inkscape:export-xdpi="96"
   inkscape:export-ydpi="96">
  <sodipodi:namedview
     pagecolor="#ffffff"
     bordercolor="#666666"
     borderopacity="1"
     objecttolerance="10"
     gridtolerance="10"
     guidetolerance="10"
     inkscape:pageopacity="0"
     inkscape:pageshadow="2"
     inkscape:window-width="1440"
     inkscape:window-height="856"
     id="namedview30"
     showgrid="true"
     inkscape:zoom="27.961538"
     inkscape:cx="9.6740027"
     inkscape:cy="10.138927"
     inkscape:window-x="0"
     inkscape:window-y="37"
     inkscape:window-maximized="0"
     inkscape:document-rotation="0"
     inkscape:current-layer="Слой_1">
    <inkscape:grid
       type="xygrid"
       id="grid_kicad"
       spacingx="0.5"
       spacingy="0.5"
       color="#9999ff"
       opacity="0.13"
       empspacing="2" />
  </sodipodi:namedview>
  <metadata
     id="metadata43">
    <rdf:RDF>
      <cc:Work
         rdf:about="">
        <cc:license
           rdf:resource="http://creativecommons.org/licenses/by-sa/4.0/" />
        <dc:format>image/svg+xml</dc:format>
        <dc:type
           rdf:resource="http://purl.org/dc/dcmitype/StillImage" />
        <dc:title>add_arc</dc:title>
      </cc:Work>
      <cc:License
         rdf:about="http://creativecommons.org/licenses/by-sa/4.0/">
        <cc:permits
           rdf:resource="http://creativecommons.org/ns#Reproduction" />
        <cc:permits
           rdf:resource="http://creativecommons.org/ns#Distribution" />
        <cc:requires
           rdf:resource="http://creativecommons.org/ns#Notice" />
        <cc:requires
           rdf:resource="http://creativecommons.org/ns#Attribution" />
        <cc:permits
           rdf:resource="http://creativecommons.org/ns#DerivativeWorks" />
        <cc:requires
           rdf:resource="http://creativecommons.org/ns#ShareAlike" />
      </cc:License>
    </rdf:RDF>
  </metadata>
  <defs
     id="defs116847">
    <style
       id="style116845">.cls-1,.cls-4{fill:none;stroke-linecap:round;stroke-linejoin:round;}.cls-1{stroke:#545454;}.cls-2{fill:#545454;}.cls-3{fill:#545454;}.cls-4{stroke:#bf2641;stroke-width:2px;}</style>
  </defs>
  <title
     id="title116849">enter_sheet</title>
  <polyline
     class="cls-1"
     points="4.532 13.317 4.532 21.969 6.014 21.969"
     id="polyline116851"
     transform="translate(-1,-1)" />
  <rect
     class="cls-2"
     x="0"
     y="0"
     width="24"
     height="6.0127001"
     id="rect116853"
     style="fill:#606060;fill-opacity:1" />
  <rect
     class="cls-3"
     x="5.0138001"
     y="8.9937"
     width="18.9862"
     height="6.0125999"
     id="rect116855"
     style="fill:#606060;fill-opacity:1" />
  <rect
     class="cls-3"
     x="5.0138001"
     y="17.987301"
     width="18.9862"
     height="6.0127001"
     id="rect116857"
     style="fill:#606060;fill-opacity:1" />
  <polyline
     class="cls-4"
     points="9.186 12.924 3.015 12.924 3.015 5.297"
     id="polyline116859"
     transform="translate(-1,-1)" />
  <polyline
     class="cls-4"
     points="6.808 10.492 9.234 12.924 6.808 15.355"
     id="polyline116861"
     transform="translate(-1,-1)" />
  <path
     class="cls-4"
     d="m 2.998,3.4714 a 0.9679,0.9679 0 1 1 -0.9678,-0.97 0.9689,0.9689 0 0 1 0.9678,0.97 z"
     id="path116863" />
</svg>
