<?xml version="1.0" encoding="UTF-8" standalone="no"?>
<svg xmlns:dc="http://purl.org/dc/elements/1.1/"
   xmlns:cc="http://creativecommons.org/ns#"
   xmlns:rdf="http://www.w3.org/1999/02/22-rdf-syntax-ns#"
   xmlns:svg="http://www.w3.org/2000/svg"
   xmlns="http://www.w3.org/2000/svg"
   xmlns:sodipodi="http://sodipodi.sourceforge.net/DTD/sodipodi-0.dtd"
   xmlns:inkscape="http://www.inkscape.org/namespaces/inkscape" id="Слой_1" data-name="Слой 1" viewBox="0 0 24 24" version="1.1" sodipodi:docname="hotkeys.svg" inkscape:version="1.0.1 (3bc2e813f5, 2020-09-07)">
   <sodipodi:namedview pagecolor="#ffffff" bordercolor="#666666" borderopacity="1" objecttolerance="10" gridtolerance="10" guidetolerance="10" inkscape:pageopacity="0" inkscape:pageshadow="2" inkscape:window-width="1609" inkscape:window-height="1286" id="namedview30" showgrid="true" inkscape:zoom="27.961538" inkscape:cx="3.3259971" inkscape:cy="13" inkscape:window-x="0" inkscape:window-y="37" inkscape:window-maximized="0" inkscape:document-rotation="0" inkscape:current-layer="Слой_1">
      <inkscape:grid type="xygrid" id="grid_kicad" spacingx="0.5" spacingy="0.5" color="#9999ff" opacity="0.13" empspacing="2" />
   </sodipodi:namedview>
   <metadata id="metadata43">
      <rdf:RDF>
         <cc:Work rdf:about="">
            <cc:license rdf:resource="http://creativecommons.org/licenses/by-sa/4.0/" />
            <dc:format>image/svg+xml</dc:format>
            <dc:type rdf:resource="http://purl.org/dc/dcmitype/StillImage" />
            <dc:title>add_arc</dc:title>
         </cc:Work>
         <cc:License rdf:about="http://creativecommons.org/licenses/by-sa/4.0/">
            <cc:permits rdf:resource="http://creativecommons.org/ns#Reproduction" />
            <cc:permits rdf:resource="http://creativecommons.org/ns#Distribution" />
            <cc:requires rdf:resource="http://creativecommons.org/ns#Notice" />
            <cc:requires rdf:resource="http://creativecommons.org/ns#Attribution" />
            <cc:permits rdf:resource="http://creativecommons.org/ns#DerivativeWorks" />
            <cc:requires rdf:resource="http://creativecommons.org/ns#ShareAlike" />
         </cc:License>
      </rdf:RDF>
   </metadata>
   <defs id="defs157599">
      <style id="style157597">.cls-1,.cls-2,.cls-3{fill:#b9b9b9;}.cls-2,.cls-5{stroke:#1a81c4;}.cls-2,.cls-3,.cls-4,.cls-5{stroke-linecap:round;stroke-linejoin:round;}.cls-3,.cls-4{stroke:#bf2641;}.cls-4,.cls-5{fill:none;}</style>
   </defs>
   <title id="title157601">hotkeys</title>
   <rect class="cls-1" x="0.99450004" y="1" width="6.0036001" height="6.0035" id="rect157603" />
   <rect class="cls-2" x="8.9954996" y="1" width="6.0036001" height="6.0035" id="rect157605" />
   <rect class="cls-1" x="16.9965" y="1" width="6.0036001" height="6.0035" id="rect157607" />
   <rect class="cls-3" x="0.99450004" y="8.9892998" width="6.0036001" height="6.0035" id="rect157609" />
   <rect class="cls-1" x="8.9954996" y="8.9892998" width="6.0036001" height="6.0035" id="rect157611" />
   <rect class="cls-2" x="16.9965" y="8.9892998" width="6.0036001" height="6.0035" id="rect157613" />
   <rect class="cls-1" x="0.99450004" y="16.9984" width="6.0036001" height="6.0035" id="rect157615" />
   <polygon class="cls-3" points="17.996,17.998 9.995,17.998 9.995,24.002 17.996,24.002 20.033,24.002 24,24.002 24,17.998 20.033,17.998 " id="polygon157617" transform="translate(-1,-1)" />
   <polyline class="cls-4" points="5.001 16.084 5.001 21.026 9.84 21.026" id="polyline157619" transform="translate(-1,-1)" />
   <polyline class="cls-5" points="12.99 8.517 12.99 13.459 17.829 13.459" id="polyline157621" transform="translate(-1,-1)" />
</svg>
