<?xml version="1.0" encoding="UTF-8" standalone="no"?>
<svg xmlns:dc="http://purl.org/dc/elements/1.1/"
   xmlns:cc="http://creativecommons.org/ns#"
   xmlns:rdf="http://www.w3.org/1999/02/22-rdf-syntax-ns#"
   xmlns:svg="http://www.w3.org/2000/svg"
   xmlns="http://www.w3.org/2000/svg"
   xmlns:sodipodi="http://sodipodi.sourceforge.net/DTD/sodipodi-0.dtd"
   xmlns:inkscape="http://www.inkscape.org/namespaces/inkscape" id="Слой_1" data-name="Слой 1" viewBox="0 0 24 24" version="1.1" sodipodi:docname="module_check.svg" inkscape:version="1.0.1 (3bc2e813f5, 2020-09-07)">
   <sodipodi:namedview pagecolor="#ffffff" bordercolor="#666666" borderopacity="1" objecttolerance="10" gridtolerance="10" guidetolerance="10" inkscape:pageopacity="0" inkscape:pageshadow="2" inkscape:window-width="2544" inkscape:window-height="1803" id="namedview30" showgrid="true" inkscape:zoom="39.543587" inkscape:cx="14.165845" inkscape:cy="18.116446" inkscape:window-x="1077" inkscape:window-y="173" inkscape:window-maximized="0" inkscape:current-layer="Слой_1" inkscape:document-rotation="0">
      <inkscape:grid type="xygrid" id="grid873" />
   </sodipodi:namedview>
   <metadata id="metadata43">
      <rdf:RDF>
         <cc:Work rdf:about="">
            <cc:license rdf:resource="http://creativecommons.org/licenses/by-sa/4.0/" />
            <dc:format>image/svg+xml</dc:format>
            <dc:type rdf:resource="http://purl.org/dc/dcmitype/StillImage" />
            <dc:title>module_editor</dc:title>
         </cc:Work>
         <cc:License rdf:about="http://creativecommons.org/licenses/by-sa/4.0/">
            <cc:permits rdf:resource="http://creativecommons.org/ns#Reproduction" />
            <cc:permits rdf:resource="http://creativecommons.org/ns#Distribution" />
            <cc:requires rdf:resource="http://creativecommons.org/ns#Notice" />
            <cc:requires rdf:resource="http://creativecommons.org/ns#Attribution" />
            <cc:permits rdf:resource="http://creativecommons.org/ns#DerivativeWorks" />
            <cc:requires rdf:resource="http://creativecommons.org/ns#ShareAlike" />
         </cc:License>
      </rdf:RDF>
   </metadata>
   <defs id="defs5">
      <style id="style3">.cls-1{fill:none;stroke:#545454;stroke-linecap:round;stroke-linejoin:round;}.cls-2{fill:#1a81c4;}.cls-3{fill:#bf2641;}.cls-4{fill:#fff;}</style>
   </defs>
   <title id="title7">module_editor</title>
   <polygon class="cls-1" points="21.531,4.063 1.247,4.063 1.247,8.578 2.995,10.153 2.995,12.325 1.247,13.899 1.247,18.922 21.516,18.922 " id="polygon9" transform="matrix(1.1338986,0,0,1.1442747,-0.91662774,-1.1958747)" style="stroke-width:0.877906" />
   <rect class="cls-2" x="2.9605565" y="0.0042999983" width="5.0280428" height="6.9999995" id="rect19" style="stroke-width:1" />
   <rect class="cls-2" x="9.960556" y="0.0042999983" width="5.0280428" height="6.9999995" id="rect875" style="stroke-width:1" />
   <rect class="cls-2" x="16.960556" y="0.0042999983" width="5.0280428" height="6.9999995" id="rect877" style="stroke-width:1" />
   <rect class="cls-2" x="2.9605565" y="17.004299" width="5.0280428" height="6.9999995" id="rect879" style="stroke-width:1" />
   <rect class="cls-2" x="9.960556" y="17.004299" width="5.0280428" height="6.9999995" id="rect881" style="stroke-width:1" />
   <rect class="cls-2" x="16.960556" y="17.004299" width="5.0280428" height="6.9999995" id="rect883" style="stroke-width:1" />
   <circle class="cls-3" cx="17" cy="17" id="ellipse22" style="fill:#bf2641;stroke-width:0.999999" r="7" />
   <path id="polyline27" style="fill:none;stroke:#f5f5f5;stroke-width:2px;stroke-linecap:round;stroke-linejoin:round" d="m 21,14 c -2.357185,1.67684 -4.004038,4.029011 -5,7 -0.849847,-1.153817 -1.572836,-2.437587 -3,-3" sodipodi:nodetypes="ccc" />
</svg>
