<?xml version="1.0" encoding="UTF-8" standalone="no"?>
<svg
   xmlns:dc="http://purl.org/dc/elements/1.1/"
   xmlns:cc="http://creativecommons.org/ns#"
   xmlns:rdf="http://www.w3.org/1999/02/22-rdf-syntax-ns#"
   xmlns:svg="http://www.w3.org/2000/svg"
   xmlns="http://www.w3.org/2000/svg"
   xmlns:sodipodi="http://sodipodi.sourceforge.net/DTD/sodipodi-0.dtd"
   xmlns:inkscape="http://www.inkscape.org/namespaces/inkscape"
   version="1.1"
   id="Слой_1"
   inkscape:version="1.0.1 (c497b03c, 2020-09-10)"
   sodipodi:docname="pagelayout.svg"
   x="0px"
   y="0px"
   viewBox="0 0 24 24"
   style="enable-background:new 0 0 24 24;"
   xml:space="preserve"><metadata
   id="metadata848"><rdf:RDF><cc:Work
       rdf:about=""><dc:format>image/svg+xml</dc:format><dc:type
         rdf:resource="http://purl.org/dc/dcmitype/StillImage" /><dc:title>pagelayout_load</dc:title><cc:license
         rdf:resource="http://creativecommons.org/licenses/by-sa/4.0/" /></cc:Work><cc:License
       rdf:about="http://creativecommons.org/licenses/by-sa/4.0/"><cc:permits
         rdf:resource="http://creativecommons.org/ns#Reproduction" /><cc:permits
         rdf:resource="http://creativecommons.org/ns#Distribution" /><cc:requires
         rdf:resource="http://creativecommons.org/ns#Notice" /><cc:requires
         rdf:resource="http://creativecommons.org/ns#Attribution" /><cc:permits
         rdf:resource="http://creativecommons.org/ns#DerivativeWorks" /><cc:requires
         rdf:resource="http://creativecommons.org/ns#ShareAlike" /></cc:License></rdf:RDF></metadata><defs
   id="defs846" />
<style
   type="text/css"
   id="style833">
	.st0{fill:#F3F3F3;}
	.st1{fill:#1A81C4;}
	.st2{fill:none;stroke:#1A81C4;stroke-linejoin:round;}
</style>
<sodipodi:namedview
   bordercolor="#666666"
   borderopacity="1"
   gridtolerance="10"
   guidetolerance="10"
   id="namedview30"
   inkscape:current-layer="Слой_1"
   inkscape:cx="10.40703"
   inkscape:cy="13.786781"
   inkscape:document-rotation="0"
   inkscape:pageopacity="0"
   inkscape:pageshadow="2"
   inkscape:window-height="755"
   inkscape:window-maximized="0"
   inkscape:window-width="1280"
   inkscape:window-x="0"
   inkscape:window-y="303"
   inkscape:zoom="18.302106"
   objecttolerance="10"
   pagecolor="#ffffff"
   showgrid="true">
	<inkscape:grid
   color="#9999ff"
   empspacing="2"
   id="grid_kicad"
   opacity="0.13"
   spacingx="0.5"
   spacingy="0.5"
   type="xygrid">
		</inkscape:grid>
</sodipodi:namedview>
<title
   id="title26165">pagelayout_load</title>
<polygon
   id="polygon26167"
   class="st0"
   points="1.5,1.5 17.1,1.5 17.1,7 22.5,7 22.5,22.5 1.5,22.5 " />
<path
   id="path26169"
   class="st1"
   d="M16,2v6h6v14H1.9L2,2 M17,1H1v22h22V7h-6V1z" />
<polygon
   id="polygon26171"
   class="st1"
   points="23,7 17,1 17,7 " />
<polyline
   id="polyline26173"
   class="st2"
   points="12.5,22.4 12.5,16.5 22.2,16.5 " />
<line
   id="line26175"
   class="st2"
   x1="22.7"
   y1="19.5"
   x2="12.9"
   y2="19.5" />
<line
   id="line26177"
   class="st2"
   x1="16.5"
   y1="22"
   x2="16.5"
   y2="17" />
<line
   id="line26179"
   class="st2"
   x1="19.5"
   y1="22"
   x2="19.5"
   y2="17" />
</svg>
