<?xml version="1.0" encoding="UTF-8" standalone="no"?>
<svg
   xmlns:dc="http://purl.org/dc/elements/1.1/"
   xmlns:cc="http://creativecommons.org/ns#"
   xmlns:rdf="http://www.w3.org/1999/02/22-rdf-syntax-ns#"
   xmlns:svg="http://www.w3.org/2000/svg"
   xmlns="http://www.w3.org/2000/svg"
   xmlns:sodipodi="http://sodipodi.sourceforge.net/DTD/sodipodi-0.dtd"
   xmlns:inkscape="http://www.inkscape.org/namespaces/inkscape"
   id="Слой_1"
   data-name="Слой 1"
   viewBox="0 0 24 24"
   version="1.1"
   sodipodi:docname="py_script.svg"
   inkscape:version="1.0.1 (1.0.1+r74)">
  <sodipodi:namedview
     pagecolor="#ffffff"
     bordercolor="#666666"
     borderopacity="1"
     objecttolerance="10"
     gridtolerance="10"
     guidetolerance="10"
     inkscape:pageopacity="0"
     inkscape:pageshadow="2"
     inkscape:window-width="2560"
     inkscape:window-height="1371"
     id="namedview159462"
     showgrid="true"
     inkscape:zoom="42.838886"
     inkscape:cx="14.188216"
     inkscape:cy="11.140924"
     inkscape:window-x="0"
     inkscape:window-y="0"
     inkscape:window-maximized="1"
     inkscape:current-layer="Слой_1"
     inkscape:document-rotation="0">
    <inkscape:grid
       type="xygrid"
       id="grid240594"
       spacingx="0.5"
       spacingy="0.5"
       color="#b6b6ff"
       opacity="0.1254902"
       empspacing="2" />
  </sodipodi:namedview>
  <metadata
     id="metadata43">
    <rdf:RDF>
      <cc:Work
         rdf:about="">
        <cc:license
           rdf:resource="http://creativecommons.org/licenses/by/4.0/" />
        <dc:format>image/svg+xml</dc:format>
        <dc:type
           rdf:resource="http://purl.org/dc/dcmitype/StillImage" />
        <dc:title>py_script</dc:title>
      </cc:Work>
      <cc:License
         rdf:about="http://creativecommons.org/licenses/by/4.0/">
        <cc:permits
           rdf:resource="http://creativecommons.org/ns#Reproduction" />
        <cc:permits
           rdf:resource="http://creativecommons.org/ns#Distribution" />
        <cc:requires
           rdf:resource="http://creativecommons.org/ns#Notice" />
        <cc:requires
           rdf:resource="http://creativecommons.org/ns#Attribution" />
        <cc:permits
           rdf:resource="http://creativecommons.org/ns#DerivativeWorks" />
      </cc:License>
    </rdf:RDF>
  </metadata>
  <defs
     id="defs159441">
    <style
       id="style159439">.cls-1{fill:#b9b9b9;}.cls-2{fill:none;}.cls-2,.cls-3{stroke:#545454;stroke-miterlimit:10;}.cls-3{fill:#545454;stroke-width:0.75px;}.cls-4{fill:#1a81c4;}</style>
  </defs>
  <title
     id="title159443">py_script</title>
  <rect
     class="cls-1"
     x="0"
     y="0"
     width="24"
     height="24"
     rx="4"
     id="rect159445"
     style="fill:#545454;fill-opacity:1" />
  <line
     class="cls-2"
     x1="0"
     y1="5.5"
     x2="24"
     y2="5.5"
     id="line159447"
     style="stroke:#ffffff;stroke-opacity:1" />
  <path
     class="cls-4"
     d="M 4.407,2.4536 A 0.9535,0.9535 0 1 1 3.4535,1.5 0.9535,0.9535 0 0 1 4.407,2.4536 Z"
     id="path159455"
     style="fill:#ffffff;fill-opacity:1" />
  <path
     class="cls-4"
     d="M 7.4072,2.4536 A 0.9536,0.9536 0 1 1 6.4537,1.5 0.9535,0.9535 0 0 1 7.4072,2.4536 Z"
     id="path159457"
     style="fill:#ffffff;fill-opacity:1" />
  <path
     class="cls-4"
     d="M 10.4072,2.4536 A 0.9536,0.9536 0 1 1 9.4536,1.5 0.9536,0.9536 0 0 1 10.4072,2.4536 Z"
     id="path159459"
     style="fill:#ffffff;fill-opacity:1" />
  <text
     xml:space="preserve"
     style="font-style:normal;font-weight:normal;font-size:13.3333px;line-height:1.25;font-family:sans-serif;letter-spacing:0px;word-spacing:0px;fill:#000000;fill-opacity:1;stroke:none"
     x="0.11127791"
     y="17.302074"
     id="text7435"><tspan
       sodipodi:role="line"
       id="tspan7433"
       x="0.11127791"
       y="17.302074"
       style="font-style:normal;font-variant:normal;font-weight:bold;font-stretch:normal;font-size:13.3333px;font-family:'Noto Sans';-inkscape-font-specification:'Noto Sans Bold';fill:#ffffff">&gt;py</tspan></text>
</svg>
