<?xml version="1.0" encoding="UTF-8" standalone="no"?>
<svg
   xmlns:dc="http://purl.org/dc/elements/1.1/"
   xmlns:cc="http://creativecommons.org/ns#"
   xmlns:rdf="http://www.w3.org/1999/02/22-rdf-syntax-ns#"
   xmlns:svg="http://www.w3.org/2000/svg"
   xmlns="http://www.w3.org/2000/svg"
   xmlns:sodipodi="http://sodipodi.sourceforge.net/DTD/sodipodi-0.dtd"
   xmlns:inkscape="http://www.inkscape.org/namespaces/inkscape"
   version="1.1"
   id="Слой_1"
   inkscape:export-filename="/Users/jeff/kicad_dev/kicad/bitmaps_png/png_26/save.png"
   inkscape:export-xdpi="96"
   inkscape:export-ydpi="96"
   inkscape:version="1.0.1 (3bc2e813f5, 2020-09-07)"
   sodipodi:docname="save.svg"
   x="0px"
   y="0px"
   viewBox="0 0 24 24"
   style="enable-background:new 0 0 24 24;"
   xml:space="preserve"><metadata
   id="metadata853"><rdf:RDF><cc:Work
       rdf:about=""><dc:format>image/svg+xml</dc:format><dc:type
         rdf:resource="http://purl.org/dc/dcmitype/StillImage" /><dc:title>save</dc:title><cc:license
         rdf:resource="http://creativecommons.org/licenses/by-sa/4.0/" /></cc:Work><cc:License
       rdf:about="http://creativecommons.org/licenses/by-sa/4.0/"><cc:permits
         rdf:resource="http://creativecommons.org/ns#Reproduction" /><cc:permits
         rdf:resource="http://creativecommons.org/ns#Distribution" /><cc:requires
         rdf:resource="http://creativecommons.org/ns#Notice" /><cc:requires
         rdf:resource="http://creativecommons.org/ns#Attribution" /><cc:permits
         rdf:resource="http://creativecommons.org/ns#DerivativeWorks" /><cc:requires
         rdf:resource="http://creativecommons.org/ns#ShareAlike" /></cc:License></rdf:RDF></metadata><defs
   id="defs851">
	
	

	
	
</defs>
<style
   type="text/css"
   id="style833">
	.st0{fill:#727272;stroke:#545454;stroke-linecap:round;stroke-linejoin:bevel;}
	.st1{fill:#F3F3F3;}
	.st2{fill:#545454;}
	.st3{fill:none;stroke:#727272;stroke-linejoin:round;}
</style>
<sodipodi:namedview
   bordercolor="#666666"
   borderopacity="1"
   gridtolerance="10"
   guidetolerance="10"
   id="namedview27"
   inkscape:current-layer="Слой_1"
   inkscape:cx="16.901706"
   inkscape:cy="10.001253"
   inkscape:document-rotation="0"
   inkscape:pageopacity="0"
   inkscape:pageshadow="2"
   inkscape:window-height="2099"
   inkscape:window-maximized="1"
   inkscape:window-width="3840"
   inkscape:window-x="0"
   inkscape:window-y="37"
   inkscape:zoom="56.297916"
   objecttolerance="10"
   pagecolor="#ffffff"
   showgrid="true">
	<inkscape:grid
   color="#a1a1ff"
   empspacing="2"
   id="grid836"
   opacity="0.1254902"
   spacingx="0.5"
   spacingy="0.5"
   type="xygrid">
		</inkscape:grid>
</sodipodi:namedview>
<title
   id="title6">save</title>
<path
   id="polygon10"
   sodipodi:nodetypes="cccccc"
   class="st0"
   d="M 22.554435,5 22.5,22.5 H 1.5 V 1.5 L 19,1.4626365 Z"
   style="fill:#545454;fill-opacity:1" />
<rect
   x="6"
   y="2"
   class="st1"
   width="10"
   height="7"
   id="rect839"
   style="fill:#f3f3f3;fill-opacity:1" />
<path
   id="line16"
   sodipodi:nodetypes="cc"
   class="st3"
   d="M 12.513322,3 12.5,8"
   style="stroke:#545454;stroke-width:3;stroke-miterlimit:4;stroke-dasharray:none;stroke-opacity:1" />
<rect
   x="5"
   y="12"
   class="st1"
   width="13"
   height="11"
   id="rect845"
   style="fill:#f3f3f3;fill-opacity:1" />
<path
   id="path888"
   sodipodi:nodetypes="cc"
   class="st3"
   d="M 5,21.5 H 18"
   style="stroke:#828de0;stroke-width:3;stroke-miterlimit:4;stroke-dasharray:none;stroke-opacity:1" /></svg>
