<?xml version="1.0" encoding="UTF-8" standalone="no"?>
<svg xmlns:dc="http://purl.org/dc/elements/1.1/"
   xmlns:cc="http://creativecommons.org/ns#"
   xmlns:rdf="http://www.w3.org/1999/02/22-rdf-syntax-ns#"
   xmlns:svg="http://www.w3.org/2000/svg"
   xmlns="http://www.w3.org/2000/svg"
   xmlns:xlink="http://www.w3.org/1999/xlink"
   xmlns:sodipodi="http://sodipodi.sourceforge.net/DTD/sodipodi-0.dtd"
   xmlns:inkscape="http://www.inkscape.org/namespaces/inkscape" height="26" width="26" version="1.0" id="svg2" inkscape:version="0.48.4 r9939" sodipodi:docname="add_text.svg">
   <metadata id="metadata66">
      <rdf:RDF>
         <cc:Work rdf:about="">
            <dc:format>image/svg+xml</dc:format>
            <dc:type rdf:resource="http://purl.org/dc/dcmitype/StillImage" />
            <dc:title></dc:title>
         </cc:Work>
      </rdf:RDF>
   </metadata>
   <sodipodi:namedview pagecolor="#ffffff" bordercolor="#666666" borderopacity="1" objecttolerance="10" gridtolerance="10" guidetolerance="10" inkscape:pageopacity="0" inkscape:pageshadow="2" inkscape:window-width="1366" inkscape:window-height="744" id="namedview64" showgrid="true" inkscape:zoom="22.961538" inkscape:cx="14.480737" inkscape:cy="13.914573" inkscape:window-x="0" inkscape:window-y="24" inkscape:window-maximized="1" inkscape:current-layer="svg2">
      <inkscape:grid type="xygrid" id="grid3043" empspacing="2" visible="true" enabled="true" snapvisiblegridlinesonly="true" spacingx="0.5px" spacingy="0.5px" />
   </sodipodi:namedview>
   <defs id="defs4">
      <linearGradient id="a">
         <stop stop-color="#fff" offset="0" id="stop7" />
         <stop stop-color="#fff" stop-opacity="0" offset="1" id="stop9" />
      </linearGradient>
      <filter id="u" color-interpolation-filters="sRGB">
         <feGaussianBlur stdDeviation="0.13617728" id="feGaussianBlur12" />
      </filter>
      <filter id="w" height="1.3175" width="1.2447" color-interpolation-filters="sRGB" y="-0.15876999" x="-0.12233">
         <feGaussianBlur stdDeviation="0.27482165" id="feGaussianBlur15" />
      </filter>
      <filter id="v" height="1.3175" width="1.2714" color-interpolation-filters="sRGB" y="-0.15876999" x="-0.13568">
         <feGaussianBlur stdDeviation="0.27482165" id="feGaussianBlur18" />
      </filter>
      <filter id="b" height="1.2603" width="1.0974" color-interpolation-filters="sRGB" y="-0.13015001" x="-0.048689">
         <feGaussianBlur stdDeviation="0.17624262" id="feGaussianBlur21" />
      </filter>
      <radialGradient id="r" xlink:href="#a" gradientUnits="userSpaceOnUse" cy="14.017" cx="51.768002" gradientTransform="matrix(1.7289,1.937e-8,0,0.081759,-35.735,6.888)" r="46" />
      <radialGradient id="s" xlink:href="#a" gradientUnits="userSpaceOnUse" cy="106.02" cx="50" gradientTransform="matrix(0.80435,2.1461e-7,-6.1186e-8,0.22932,11.783,87.688)" r="46" />
      <radialGradient id="t" gradientUnits="userSpaceOnUse" cy="98.398003" cx="52" gradientTransform="matrix(1,0,0,1.146,2,-8.7628)" r="41.838001">
         <stop stop-color="#5e5e5e" offset="0" id="stop26" />
         <stop stop-opacity="0" offset="1" id="stop28" />
      </radialGradient>
      <linearGradient id="x" y2="28" xlink:href="#a" gradientUnits="userSpaceOnUse" x2="60" gradientTransform="translate(2,0)" y1="140" x1="60" />
      <linearGradient id="y" y2="4.3004999" xlink:href="#a" gradientUnits="userSpaceOnUse" x2="94.487" gradientTransform="translate(2,0)" y1="14.023" x1="89.095001" />
      <linearGradient id="z" y2="-1.4447" xlink:href="#a" gradientUnits="userSpaceOnUse" x2="10.518" gradientTransform="translate(2,0)" y1="12.211" x1="10.518" />
      <linearGradient id="aa" y2="64" xlink:href="#a" gradientUnits="userSpaceOnUse" x2="56" gradientTransform="translate(2,0)" y1="-104" x1="40" />
      <linearGradient id="ab" y2="-32" xlink:href="#a" gradientUnits="userSpaceOnUse" x2="44.25" gradientTransform="translate(1.975,-0.025)" y1="64" x1="76.25" />
      <linearGradient id="ac" y2="64" xlink:href="#a" gradientUnits="userSpaceOnUse" x2="56" gradientTransform="translate(1.725,-0.025)" y1="0.025" x1="52.275002" />
      <linearGradient id="ad" y2="101.12" xlink:href="#a" gradientUnits="userSpaceOnUse" x2="74.811996" gradientTransform="translate(2,0)" y1="106.19" x1="78.125" />
      <linearGradient id="q" y2="101.12" xlink:href="#a" gradientUnits="userSpaceOnUse" x2="74.811996" y1="106.19" x1="78.125" />
   </defs>
   <g transform="matrix(1.0165876,0,0,0.98368307,-3,-1.0000001)" style="font-size:39.34732819px;font-style:normal;font-weight:normal;line-height:125%;letter-spacing:0px;word-spacing:0px;fill:#000000;fill-opacity:1;stroke:none;font-family:Sans" id="text3415">
      <path d="m 11.312355,5.591232 -1.4755244,0 C 8.2588349,5.591249 7.4237303,5.6333178 6.8857814,6.0995258 6.401623,6.5119715 5.7330264,7.1706083 5.4102568,8.6409948 l -1.4755246,0 0.4918416,-5.591232 16.7226122,0 0.491841,5.591232 -1.475524,-3e-7 C 19.842716,7.1347445 19.192051,6.5119715 18.689978,6.0995258 18.169944,5.6691813 17.316908,5.591249 15.738929,5.591232 l -1.475525,0 0,12.199051 c 0,1.075905 0.115266,2.254563 0.491842,2.541469 0.32276,0.233113 0.909383,0.944861 1.967366,1.016587 l 0,1.016588 -7.8694641,0 0,-1.016588 c 1.1655561,-0.08966 1.6804521,-0.693815 1.9673661,-1.016587 0.268969,-0.304838 0.447457,-1.394753 0.491841,-2.541469" style="font-size:27.54312897px;font-variant:normal;font-weight:bold;font-stretch:normal;fill:#282828;fill-opacity:1;font-family:Rachana;-inkscape-font-specification:Rachana Bold" id="path3777" inkscape:connector-curvature="0" sodipodi:nodetypes="ccccccccccccsccccccc" />
   </g>
   <path sodipodi:type="arc" style="fill:#ff0000;fill-opacity:1;stroke:none" id="path3772" sodipodi:cx="29" sodipodi:cy="14.5" sodipodi:rx="7.5" sodipodi:ry="7.5" d="M 25.25,20.995191 A 7.5,7.5 0 0 1 21.5,14.5 l 7.5,0 z" transform="translate(-11,3.5)" sodipodi:start="2.0943951" sodipodi:end="3.1415927" />
   <path sodipodi:end="4.1887902" sodipodi:start="3.1415927" transform="translate(-11,3.5)" d="M 21.5,14.5 A 7.5,7.5 0 0 1 25.25,8.0048095 L 29,14.5 z" sodipodi:ry="7.5" sodipodi:rx="7.5" sodipodi:cy="14.5" sodipodi:cx="29" id="path3776" style="fill:#ff6600;fill-opacity:1;stroke:none" sodipodi:type="arc" />
   <path sodipodi:type="arc" style="fill:#ffff00;fill-opacity:1;stroke:none" id="path3778" sodipodi:cx="29" sodipodi:cy="14.5" sodipodi:rx="7.5" sodipodi:ry="7.5" d="m 25.25,8.0048095 a 7.5,7.5 0 0 1 7.5,10e-8 L 29,14.5 z" transform="translate(-11,3.5)" sodipodi:start="4.1887902" sodipodi:end="5.2359878" />
   <path sodipodi:end="6.2831853" sodipodi:start="5.2359878" transform="translate(-11,3.5)" d="M 32.75,8.0048096 A 7.5,7.5 0 0 1 36.5,14.5 l -7.5,0 z" sodipodi:ry="7.5" sodipodi:rx="7.5" sodipodi:cy="14.5" sodipodi:cx="29" id="path3780" style="fill:#00aa00;fill-opacity:1;stroke:none" sodipodi:type="arc" />
   <path sodipodi:type="arc" style="fill:#0066ff;fill-opacity:1;stroke:none" id="path3782" sodipodi:cx="29" sodipodi:cy="14.5" sodipodi:rx="7.5" sodipodi:ry="7.5" d="m 36.5,14.5 a 7.5,7.5 0 0 1 -3.75,6.495191 L 29,14.5 z" transform="translate(-11,3.5)" sodipodi:start="0" sodipodi:end="1.0471976" />
   <path sodipodi:end="2.0943951" sodipodi:start="1.0471976" transform="translate(-11,3.5)" d="m 32.75,20.995191 a 7.5,7.5 0 0 1 -7.5,0 L 29,14.5 z" sodipodi:ry="7.5" sodipodi:rx="7.5" sodipodi:cy="14.5" sodipodi:cx="29" id="path3784" style="fill:#5500d4;fill-opacity:1;stroke:none" sodipodi:type="arc" />
   <path sodipodi:type="arc" style="fill:none;stroke:#808080;stroke-opacity:1" id="path3786" sodipodi:cx="33.5" sodipodi:cy="18.5" sodipodi:rx="7.5" sodipodi:ry="7.5" d="m 41,18.5 a 7.5,7.5 0 1 1 -15,0 7.5,7.5 0 1 1 15,0 z" transform="translate(-15.5,-0.5)" />
</svg>
