<?xml version="1.0" encoding="UTF-8" standalone="no"?>
<svg
   xmlns:dc="http://purl.org/dc/elements/1.1/"
   xmlns:cc="http://creativecommons.org/ns#"
   xmlns:rdf="http://www.w3.org/1999/02/22-rdf-syntax-ns#"
   xmlns:svg="http://www.w3.org/2000/svg"
   xmlns="http://www.w3.org/2000/svg"
   xmlns:sodipodi="http://sodipodi.sourceforge.net/DTD/sodipodi-0.dtd"
   xmlns:inkscape="http://www.inkscape.org/namespaces/inkscape"
   id="Слой_1"
   data-name="Слой 1"
   viewBox="0 0 24 24"
   version="1.1"
   sodipodi:docname="sim_tune.svg"
   inkscape:version="1.0.1 (3bc2e813f5, 2020-09-07)">
  <sodipodi:namedview
     pagecolor="#ffffff"
     bordercolor="#666666"
     borderopacity="1"
     objecttolerance="10"
     gridtolerance="10"
     guidetolerance="10"
     inkscape:pageopacity="0"
     inkscape:pageshadow="2"
     inkscape:window-width="2588"
     inkscape:window-height="1529"
     id="namedview30"
     showgrid="true"
     inkscape:zoom="39.543586"
     inkscape:cx="14.342277"
     inkscape:cy="16.114632"
     inkscape:window-x="180"
     inkscape:window-y="246"
     inkscape:window-maximized="0"
     inkscape:document-rotation="0"
     inkscape:current-layer="Слой_1">
    <inkscape:grid
       type="xygrid"
       id="grid_kicad"
       spacingx="0.5"
       spacingy="0.5"
       color="#9999ff"
       opacity="0.13"
       empspacing="2" />
  </sodipodi:namedview>
  <metadata
     id="metadata43">
    <rdf:RDF>
      <cc:Work
         rdf:about="">
        <cc:license
           rdf:resource="http://creativecommons.org/licenses/by-sa/4.0/" />
        <dc:format>image/svg+xml</dc:format>
        <dc:type
           rdf:resource="http://purl.org/dc/dcmitype/StillImage" />
        <dc:title>add_arc</dc:title>
      </cc:Work>
      <cc:License
         rdf:about="http://creativecommons.org/licenses/by-sa/4.0/">
        <cc:permits
           rdf:resource="http://creativecommons.org/ns#Reproduction" />
        <cc:permits
           rdf:resource="http://creativecommons.org/ns#Distribution" />
        <cc:requires
           rdf:resource="http://creativecommons.org/ns#Notice" />
        <cc:requires
           rdf:resource="http://creativecommons.org/ns#Attribution" />
        <cc:permits
           rdf:resource="http://creativecommons.org/ns#DerivativeWorks" />
        <cc:requires
           rdf:resource="http://creativecommons.org/ns#ShareAlike" />
      </cc:License>
    </rdf:RDF>
  </metadata>
  <defs
     id="defs159987">
    <style
       id="style159985">.cls-1{fill:#b9b9b9;}.cls-2,.cls-3{fill:none;stroke-linecap:round;stroke-linejoin:round;stroke-width:1.25px;}.cls-2{stroke:#bf2641;}.cls-3{stroke:#1a81c4;}</style>
  </defs>
  <title
     id="title159989">simulator</title>
  <circle
     style="fill:#ffffff;stroke:#545454;stroke-width:1.5;stroke-linecap:round;stroke-linejoin:round;stroke-miterlimit:4;stroke-dasharray:none;stroke-opacity:1;fill-opacity:1"
     id="path841"
     cx="12"
     cy="12"
     r="11.25" />
  <path
     style="fill:none;stroke:#545454;stroke-width:1;stroke-linecap:round;stroke-linejoin:miter;stroke-miterlimit:4;stroke-dasharray:none;stroke-opacity:1"
     d="m 0.5,12.5 h 19"
     id="path843"
     sodipodi:nodetypes="cc" />
  <path
     style="fill:none;stroke:#545454;stroke-width:1;stroke-linecap:round;stroke-linejoin:miter;stroke-miterlimit:4;stroke-dasharray:none;stroke-opacity:1"
     d="M 5.5,17 V 3"
     id="path845"
     sodipodi:nodetypes="cc" />
  <circle
     style="fill:none;stroke:#545454;stroke-width:1.5;stroke-linecap:round;stroke-linejoin:round;stroke-miterlimit:4;stroke-dasharray:none;stroke-opacity:1;fill-opacity:1"
     id="circle851"
     cx="12"
     cy="12"
     r="11.25" />
  <path
     style="fill:none;stroke:#1a81c4;stroke-width:1.5;stroke-linecap:round;stroke-linejoin:round;stroke-miterlimit:4;stroke-dasharray:none;stroke-opacity:1"
     d="m 3.5,14.5 c 0,0 1.3518787,-7 2.8518787,-7 1.5,0 1.6002744,8.070806 3.0698938,8.060622 C 11.421725,15.546763 10.617219,4.5 12.617219,4.5 c 2,0 1.314653,14.512198 2.814653,14.512198 1.201824,0 1.002258,-3.266618 1.988097,-4.624305 C 17.831854,13.820649 18.5,13 19,13"
     id="path865"
     sodipodi:nodetypes="cssssac" />
  <circle
     class="cls-3"
     cx="-38.5"
     cy="-8.499999"
     id="ellipse22-5"
     style="display:inline;fill:#bf2641;stroke-width:0.999999"
     r="7" />
  <path
     class="cls-4"
     d="m -33.960301,-12.5 -0.645181,-0.645178 c -0.401771,-0.40166 -1.053051,-0.40166 -1.454825,0 l -5.316089,5.3408197 2.100006,2.1001322 5.316089,-5.3409459 c 0.401658,-0.401772 0.401658,-1.053056 0,-1.454828 z"
     id="path25-6"
     style="display:inline;fill:#ffffff;stroke-width:0.999999"
     sodipodi:nodetypes="ccccccc" />
  <path
     id="polygon27"
     style="display:inline;fill:#ffffff;stroke-width:0.999999"
     d="m -42.500002,-4.5000005 h 3 c -0.779315,-0.772295 -2.28388,-2.2755338 -3,-2.9999996 z"
     sodipodi:nodetypes="cccc" />
  <circle
     class="cls-3"
     cx="17.5"
     cy="17.5"
     id="ellipse22-5-3"
     style="display:inline;fill:#bf2641;stroke:#ffffff;stroke-width:0.999999;stroke-opacity:1"
     r="7" />
  <g
     id="g889"
     transform="matrix(0.89551981,0,0,0.89551981,2.2892685,2.2014066)"
     style="stroke-width:1.11667">
    <path
       class="cls-4"
       d="m 21.609786,13.070086 -0.645181,-0.645178 c -0.401771,-0.40166 -1.053051,-0.40166 -1.454825,0 l -5.316089,5.34082 2.100006,2.100132 5.316089,-5.340946 c 0.401658,-0.401772 0.401658,-1.053056 0,-1.454828 z"
       id="path25-6-6"
       style="display:inline;fill:#ffffff;stroke-width:1.11667"
       sodipodi:nodetypes="ccccccc" />
    <path
       id="polygon27-7"
       style="display:inline;fill:#ffffff;stroke-width:1.11667"
       d="m 13.070085,21.070086 h 3 c -0.779315,-0.772295 -2.28388,-2.275534 -3,-3 z"
       sodipodi:nodetypes="cccc" />
  </g>
</svg>
